<svg version="1.1" xmlns="http://www.w3.org/2000/svg" xmlns:xlink="http://www.w3.org/1999/xlink" x="0px" y="0px"
	 viewBox="0 0 1206.51 679.42" style="enable-background:new 0 0 1206.51 679.42;" xml:space="preserve" class="map-contour">
	<path   d="M282.99,377.15c-6.93,16.8-11.5,4.01-4.9,24.61c4.61,2.82,5.75-6.45,11.36-4.22c2.76,0.09,6.31,2.1,7.6,5.13
		c4.57,1.89,1.37-6.9,8.89-4.01c0.54,0.21,1.13,0.47,1.79,0.81c-2.98-10.93,3.21-10.3,11.03-5.4c1.19,2.06-0.2,5.44,3.64,4.33
		c3.03,0.21,3.31,4.44,6.99,4.3c1.87-4.57,5.44,2.76,7.89,0.07c3.63,0.08,3.64,1.65,7.9-1.16c7.63,0.94,9.89,11.68,17.78,3.36
		c0.21-0.2,0.41-0.42,0.61-0.65l0.13-0.08c-0.01-0.02-0.03-0.04-0.04-0.07c-0.06-0.11-0.12-0.22-0.18-0.33
		c0.06,0.11,0.12,0.22,0.18,0.33l0.33-0.14c10.72-4.05,4-19.72,14.98-23.48c3.91-2.97,0.4-6.31,1.35-9.74
		c4.98-2.31,10.54-18.54,9.67-3.42c6.56,3.86,10.37-8.19,17.59-9.7c0.74-0.16,1.53-0.21,2.35-0.11c4.78-2.14,7.21-10.38,13.35-7.42
		c3.73,1.54,6.61,0.31,8.06-3.17c2.59,0.24,5.48,0.76,5.94-2.71c16.39-2.98-2.69-9.18,5.68-17.67l-0.37-0.74
		c-0.84,0.38-1.67,0.5-2.51,0.64c-1.85,0.29-3.82,0.6-6.4,3.74c-3.71-0.74-13.15,1.19-12.12,5.34
		c-25.44,9.69-44.13-25.76-66.13-24.46c-4.12,0.94-8.78-2.42-12.47-0.51c-2.24,1.71-3.39,1.73-4.37,1.15l-0.08,0.13
		c-15.84,11.32-6.44,6.37-6.95,20.44c3.02,10.34-21.08-4.96-23.14-9.67c-2.89-1.85-7.63-7.11-10.74-3.36
		c-1.82,5.64,8.48,7.42,5.71,12.92c-9.43,7.75,3.86,6.62-10.47,16.35c-5.29,6.57,2.03,5.5,5.7,7.65c4.9-7.11,12.91-2.07,6.54,4.66
		c-12.05,4.12-1.8,8.93-9.04,12.49c-3.94-0.14-8.17-1.05-11.16,1.33c0.01,0.03,0.02,0.07,0.03,0.1c-0.01-0.03-0.02-0.07-0.03-0.1
		C284.22,375.3,283.56,376.09,282.99,377.15z"/>
	<path   d="M335.08,309.32c1.67,0.63,2.49,1.86,3.51,2.45c0.98,0.58,2.13,0.56,4.37-1.15c3.69-1.91,8.35,1.45,12.47,0.51
		c22-1.3,40.69,34.15,66.13,24.46c-1.03-4.15,8.41-6.08,12.12-5.34c2.58-3.14,4.55-3.45,6.4-3.74c0.84-0.14,1.67-0.26,2.51-0.64
		c1.37-0.64,2.81-1.98,4.5-5.19l0.68-0.13c-0.46-1.46-0.79-2.97-1.71-4.16c-1.85-1.52-1.86-4.31-3.47-6.04
		c-4.42-4.07-9.76-7.98-14.11-11.4c-1.52-0.8-2.48-0.66-2.53-2.82c-0.37-2.22,0.58-4.92-1.71-6.23c-0.83-0.81-1.08-7.03-2.55-5.78
		c-0.53,1.4-0.73,3.03-1.66,4.23c-0.9,0.96-2.46,1.64-2.46,3.17c0.23,1.04,1.88,1,2.24,2.01c0.44,1.68-1.33,3.81,0.31,5.12
		c2.08,0.17,1.02,2.15,2.49,1.84c0.7-0.72,1.68,0.15,1.11,0.96c-0.23,1-1.25,1.54-1.5,2.53c-0.04,1.74,0.1,3.54-0.09,5.37
		c0,0.02-0.01,0.05-0.01,0.07c0-0.02,0.01-0.05,0.01-0.07c0-0.01-0.01-0.02-0.02-0.02c-0.91,5.93-4.78-0.37-7.72,2.47
		c-1.3,1.25-0.81,3.42-2.11,4.65c-1.25,0.69-2.69-0.72-2.45-2.03c0.45-3.02,3.89-4.2,3.53-7.67c1.76-1.95,1.67-2.66,1.17-5.25
		c-0.97-3.92-1.42,2.32-2.63,2.95c-1.89,1.44-4.33-0.12-6.33,0.74c-0.73,0.35-1.04,1.26-1.93,1.35c-0.58,0.15-1.11-0.28-1.63-0.14
		c-0.53,0.22-0.96,0.64-1.42,0.92c0,0.03,0.01,0.06,0.05,0.08c-0.94-0.66-1.92-1.43-2.85-2.11c-0.13-0.37-1.28-1.34-1.64-2.04
		c-0.47-0.85-1.29-1.13-2.21-1.12c-4.43,0.99-5.24-1.56-7.47,3.33c-1.49,1.65-1.68-1.83-2.43-2.52c-1.02-1.01-2.87,0.03-3.68-1.39
		c-0.81-0.84-0.27-2.28,0.57-2.84c0.66-0.44,1.48-0.03,2.19-0.3c0.62-0.36,0.26-1.48,0.69-2.08c1.41-2.67,4.42-0.73,6.52-1.5
		c0.8-0.36,0.37-1.85-0.43-1.98c-1.16-0.59-2.85,0.21-3.78-0.49c-1.09-0.08-1.95-0.05-3.04-0.11c-3.1,0.33-1.87-0.91-4.14-1.69
		c-2.19,0.06-1.38,5.31-3.23,4.29c-2.36-2.9-0.89-3.7-5.1-3.06c-1.13-0.59-0.37-2.5-1.62-3.14c-0.17-0.1-0.42-0.13-0.5,0.08
		c-0.2,3.48-4.09,2.57-6.48,2.6c-2.2-0.48-4.89,0.65-7-0.32c-0.83-0.47-0.63-1.89-1.72-2.07c-1.86-0.63-1.3,3.09-4.04,2.92
		c-0.82,0.02-0.98-1.03-1.63-1.31c-0.62-0.1-0.99-0.98-1.65-0.87c-3.13,3.17-6.61,7.21-11.61,6.19c0.07,0,0.13-0.01,0.2-0.03
		c-1.73-0.46-3.12-1.76-4.62-2.6c-2.4-1.2-1.91-3.1,0.06-4.33c0.65-1.07-0.97-2.06-1.43-2.89c-0.32-2.36,0.85-6.28,3.89-5.82
		c1.59,0.27,3.18-1.36,4.68-0.39c0.92,0.78,1.36,1.99,2.19,2.87c1.12,0.84,3.1,1.33,3.95-0.14c0.51-0.96,0.46-2.05,0.5-3.07
		c0.69-1.04,0.95-2.16,0.11-3.26c-1.26-1.88,0.58-3.89,0.03-5.91c0.13-2.96-3.21-3.67-5.41-4.7c-1.9-0.97-1.22-3.66-2.52-5.16
		c-3.14-0.21-0.33,5.14-1.26,6.69c-0.52,1.52-2.05,2.15-2.86,3.36c-1.62,2.78-1.7,3.72-5.2,4c-0.79-0.11-2.66-0.17-2.78,1.15
		c-0.37,1.35-1.92,1.83-2.96,2.57c-0.72,0.69,0.15,1.3,0.3,1.99c0.59,1.43,0.36,2.99,0.34,4.49c-0.45,1.72-2.57,1.53-3.71,2.39
		c0.28,1.68-1.49,2.09-2.46,3.02c-0.55,0.6-0.82,1.44-1.42,1.97c-0.24,0.22-1.12,0.11-1.02,0.43c-0.01,0-0.02-0.01-0.03-0.01
		l-0.03,0.06C318.69,301.28,322.12,313.18,335.08,309.32z"/>
	<path   d="M412.78,526.7c3.81-1.34,2.92-4.46,4.94-7.26c2.53-2.75,7.47-0.78,7.51-6.4c-0.66-7.64-7.83-15.91-2.92-23.16
		c10.61-10.74,0.67,11.41,8.27,5.47c3.98-3.97,4.17,6.98,7.8,3.04c0.85-0.99,2.56-0.43,2.73,0.84c2.71,1.56,3.18-5.57,4.76-1.28
		c2.52,2.1,5.03-0.62,7.56-1.03c3.73,1.64,5.15-1.83,7.98-2.89l0.2-0.19c-0.05-0.08-0.12-0.15-0.19-0.2
		c-0.96-0.68-3.52,0.78-3.82-1.24c-1.7-5.89-10.14-2.41-12.65-6.07c2.14-3.79,1.02-4.49-2.33-5.82c1.42-3.78-1.47-6.66-3.37-9.8
		c-3.35-4.55-9.41-2.15-13.64-1.56c0.69-2.89-0.82-6.6-4.05-3.96c-5.22,5.84-12.21,2.66-17.59,7.22c-7.16,4.97-10.77,3.22-13.31-0.7
		c-0.01-0.02-0.03-0.05-0.04-0.07l-0.24,0.14c-3.8,15.09-5.71,8.6-16.65,12.47c-0.32,5.24-2.65,8.99-4.14,12.09
		c-1.88,3.87-2.46,6.71,3.76,10.13c5.37,9.31,10.08,6.27,11.53,13.97c5.59,1.99,8.92,4.73,8.98,11.14l0.02,0.14
		c0.74-0.12,1.53-0.08,2.28-0.07c4.08,1.74,4.52,5.37,10.57,5.42c0.58-0.06,1.67,0.02,2.6,0.31
		C408.93,532.63,413.42,531.19,412.78,526.7z"/>
	<path   d="M382.34,456.48c-9.2-2.83,2.36-12.26-3.54-25.16c9.59-11.53-10.2-18.5-15.1-27.08l-0.13,0.08
		c-0.2,0.23-0.4,0.45-0.61,0.65l0.03,0.03c0.04,14.42-14.45,23.24-21.39,33.99c2.23,23.21-6.53,7.56-9.94,22.06
		c-4.85,3.94-10.55-10.05-11.85,5.5c-2.4,7.81-7.67-6.46-8.78,3.19c-0.74,1.87-4.86,3.52-3.1,5.81l-0.09,0.14
		c4.65,2.91,9.81,5.29,12.83,9.54l0.42-0.29c1.3,0.21,2.61,0.38,3.92,0.49c3.89,0.08,6.4,7.31,11.72,4.95
		c3.68,1.57,6.25,3.92,7.52,6.59l0.26-0.13c3.48-7.14,8.89-1.08,13.86-1.35c3.44,4.89,6.66,0.38,10.9,0.69l0.32,0.16
		c1.49-3.1,3.82-6.85,4.14-12.09c10.94-3.87,12.85,2.62,16.65-12.47l0.24-0.14C387.71,467.11,386.22,459.71,382.34,456.48z"/>
	<path   d="M384.88,520.44c-1.45-7.7-6.16-4.66-11.53-13.97c-6.22-3.42-5.64-6.26-3.76-10.13l-0.32-0.16
		c-4.24-0.31-7.46,4.2-10.9-0.69c-4.97,0.27-10.38-5.79-13.86,1.35l-0.26,0.13c2.04,4.28,0.7,9.39-4.83,13.37
		c-6.4,7.65,7.38,10.67,4.99,19.31l-0.85,0.03c0.28,0,0.56,0.02,0.83,0.07c0.52,0.1,0.98,0.33,1.29,0.77c0.43,0.62,0.21,1.73,1,2.09
		c1.81,0.46,3.64-0.46,5.44-0.77c2.45-0.1,4.71,1.01,7.09,1.47c0.62,0.01,1.77-0.55,2.49-1.02c1.54-0.83,3.37-0.67,5.03-0.42
		c1.52,0.23,2.71,1.38,4.21,1.65c2.31,0.17,4.67,0.01,7,0.06c0.26,0.25,2.09,0.74,2.96,0.78c1.94,0.07,3.81-0.67,5.73-0.79
		c0.82-0.64,1.87-1.75,3.02-1.25c0.91,0.5,2.21,0.91,2.86-0.13c0.43-0.26,0.89-0.4,1.37-0.47l-0.02-0.14
		C393.8,525.17,390.47,522.43,384.88,520.44z"/>
	<path   d="M339.42,510.34c5.53-3.98,6.87-9.09,4.83-13.37c-1.27-2.67-3.84-5.02-7.52-6.59
		c-5.32,2.36-7.83-4.87-11.72-4.95c-1.31-0.11-2.62-0.28-3.92-0.49l-0.42,0.29c0.33,0.45,0.62,0.91,0.89,1.4
		c-0.28,1.94-0.84,2.96-2.7,3.55c0.48,1.6,2.87,3.6,1.48,5.52c-0.94,0.9-2.4,0.2-3.22-0.53c-2.26-0.12-2.93,4.75-5.95,0.43
		c-8.21,1.52-9.34,4.35-6.14-5.73c-5.53-8.74-15.29,10.92-6.89,13.85c2.03,1.37,4.17-1.25,5.92-0.11c0.75,3.29,3.73,1.12,5.15,2.15
		c2.71,2.16,6.07-6.22,8.11,0.82c-0.76,6.67-8.03,4.62-12.21,5.12c-4.16,8.35-10.88,16.15-12.18,25.49l-0.35,0.44
		c0.1,0,0.19,0,0.29,0.01c0.09,0.01,0.17,0.03,0.26,0.04c12.91,0.8,4.54,4.52,7.93,10.74l0.23,0.09c1.37-1.89,7.06,3.44,10.33-0.75
		c-0.01,0.01-0.03,0.01-0.04,0.01c2.19-3.96-3.17-4.67-1.02-7.56c0.85-1.14,2.26-1.71,3.69-1.62c2.07,0.12,5.34,0.82,7.82,3.77
		c1.06,1.61,3.1,0.18,2.89-1.45c-0.15-1.77-2.17-2.63-3.16-3.96c-0.61-0.74-3-3.17-1.22-3.5c1.2,0.33,1.24-0.97,1.59-1.76
		c0.69-1.58-0.91-2.16-1.73-3.21c-0.49-1.39,0.69-2.77,1.36-3.91c0.61-1.33,2.36,0.14,3.38,0.31c-0.26,0.29,0.35,0.87,0.48,1.19
		c0.38,1.95,2.53,1,3.63,2.22c1.5,2.91,3.09,0.7,5.55,0.39c-0.05,0-0.08,0.03-0.08,0.07c1.32,0.07,2.72,0.07,4,0.38
		c0.98,0.43,1.74,1.28,2.88,0.71c0.57-0.06,1.25-0.16,1.92-0.16l0.85-0.03C346.8,521.01,333.02,517.99,339.42,510.34z"/>
	<path   d="M307.84,475.69c-3.15-1.97-6.07-4.18-7.94-7.37c-9.83-2.09-4.85-1.3-12-6.8l-0.1-0.04
		c-0.92,2.18-2.59,3.14-4.84,3.73c-0.42,0.7-0.85,1.39-1.31,2.08c-0.92,1.41-1.91,2.8-2.89,4.17c-3.5,3.94-15.88-2.88-8.61,5.71
		c-0.21,4.59-5.46,5.97-7.59,9.71c-0.15,0.27-0.29,0.56-0.41,0.86c-5.78,19.39,7.34,8.99,1.07,29.52c-2.53,13,17.4-3.56,6.28,10.36
		c5.84,3.87-3.3,6.36-2.17,11.12c1.96,1.5,6.83-4.27,6.93,0.63c4.03,0.95,8.97-2.36,8.31,4.7c3.89,1.15,5.94-6.44,10.01-6.44
		l0.35-0.44c1.3-9.34,8.02-17.14,12.18-25.49c4.18-0.5,11.45,1.55,12.21-5.12c-2.04-7.04-5.4,1.34-8.11-0.82
		c-1.42-1.03-4.4,1.14-5.15-2.15c-1.75-1.14-3.89,1.48-5.92,0.11c-8.4-2.93,1.36-22.59,6.89-13.85c-3.2,10.08-2.07,7.25,6.14,5.73
		c3.02,4.32,3.69-0.55,5.95-0.43c0.82,0.73,2.28,1.43,3.22,0.53c1.39-1.92-1-3.92-1.48-5.52c1.86-0.59,2.42-1.61,2.7-3.55
		c-0.27-0.49-0.56-0.95-0.89-1.4C317.65,480.98,312.49,478.6,307.84,475.69z"/>
	<path   d="M345.18,401.61c-4.26,2.81-4.27,1.24-7.9,1.16c-2.45,2.69-6.02-4.64-7.89-0.07c-3.68,0.14-3.96-4.09-6.99-4.3
		c-3.84,1.11-2.45-2.27-3.64-4.33c-7.82-4.9-14.01-5.53-11.03,5.4c-0.66-0.34-1.25-0.6-1.79-0.81L305.8,399
		c-0.19,4.99,12.97,11.58,1.64,12.62c-4.95,1.14-5.85,5.34-1.68,8.19c-3.44,2.63-2.97,10.78-5.94,10.21l-0.02,0.14
		c0.06,6.37-9.27,10.49-6.76,18.1c2.11,6.04-7.83,6.79-4.98,12.89c0.04,0.09,0.08,0.18,0.13,0.27c-0.05-0.09-0.09-0.18-0.13-0.27
		l-0.16,0.08c-0.03,0.09-0.07,0.17-0.1,0.25l0.1,0.04c7.15,5.5,2.17,4.71,12,6.8c1.87,3.19,4.79,5.4,7.94,7.37l0.09-0.14
		c-1.76-2.29,2.36-3.94,3.1-5.81c1.11-9.65,6.38,4.62,8.78-3.19c1.3-15.55,7-1.56,11.85-5.5c3.41-14.5,12.17,1.15,9.94-22.06
		c6.94-10.75,21.43-19.57,21.39-33.99l-0.03-0.03C355.07,413.29,352.81,402.55,345.18,401.61z"/>
	<path   d="M267.94,374.05c-4.28,1.92,1.68,5.65-2.1,12.04c-0.29,0.5-0.65,1.02-1.07,1.55
		c-1.69,18.06-6.89-0.13-17.22,12.51c8.4,5.15,6.47,12.16-2.86,10.93c-3.38-5.23-3.67,1.8-5.11,3.91l-0.42,0.68
		c2.73,1.63,5.3,3.63,7.16,5.49c3.93,0.35,7.72,1.45,11.25,3.54c0.9,5.93,3.91,7.47,1.13,13.27l-0.33,0.04
		c1.83,2.45,0.27,8.33,3.11,10.78c0.43,1.47,0.91,2.68,1.42,3.65l0.03-0.01c-0.77-1.49,2.15-2.29,2.17-3.98
		c0.87-1.85-1.7-3.96,0.25-5.4c1.56-0.64,3.94-0.17,4.55-2.25c-0.57-14.11,1.76-5.8,9.53-6.91c3.19-4.94,4.96-20.97,11.66-8.78
		c3.34,0.81,3.88-1.79,6,2.92c1.16,1.26,2.04,1.86,2.73,1.99c2.97,0.57,2.5-7.58,5.94-10.21c-4.17-2.85-3.27-7.05,1.68-8.19
		c11.33-1.04-1.83-7.63-1.64-12.62l0.14-0.34c-7.52-2.89-4.32,5.9-8.89,4.01c-1.29-3.03-4.84-5.04-7.6-5.13
		c-5.61-2.23-6.75,7.04-11.36,4.22c-6.6-20.6-2.03-7.81,4.9-24.61c0.57-1.06,1.23-1.85,1.97-2.44c-2.71-9.7-4.52-8.94-6.96-6.25
		C275.68,371.02,272.77,375.35,267.94,374.05z"/>
	<path   d="M288.06,461.15c-2.85-6.1,7.09-6.85,4.98-12.89c-2.51-7.61,6.82-11.73,6.76-18.1l0.02-0.14
		c-0.69-0.13-1.57-0.73-2.73-1.99c-2.12-4.71-2.66-2.11-6-2.92c-6.7-12.19-8.47,3.84-11.66,8.78c-7.77,1.11-10.1-7.2-9.53,6.91
		c-0.61,2.08-2.99,1.61-4.55,2.25c-1.95,1.44,0.62,3.55-0.25,5.4c-0.02,1.69-2.94,2.49-2.17,3.98c0.03,0.06,0.06,0.12,0.1,0.18
		c-0.04-0.06-0.07-0.12-0.1-0.18l-0.03,0.01c5.77,10.94,16.19-7.28,19.12-0.67c-0.88,3.09-4.43,5.21-1.11,8.13
		c-2.74,3,0.83,4.16,0.5,7.23l0.24,0.16c0.46-0.69,0.89-1.38,1.31-2.08c2.25-0.59,3.92-1.55,4.84-3.73c0.03-0.08,0.07-0.16,0.1-0.25
		L288.06,461.15z"/>
	<path   d="M257.57,424.7c-3.53-2.09-7.32-3.19-11.25-3.54c-1.86-1.86-4.43-3.86-7.16-5.49h-0.01
		c-7.81-4.68-16.9-6.3-14.16,7.33c0.1,0.45,0.26,0.81,0.47,1.09c1.43,1.9,5.2,0.48,7.31,1.11c7.09,0.81,3.38,8.43,7.16,11.93
		c0.97,0.09,1.94,0.15,2.9,0.06c4.19-2.66,7.99-1.95,11.74-0.15c1.99-0.38,3.13,0.06,3.8,0.97l0.33-0.04
		C261.48,432.17,258.47,430.63,257.57,424.7z"/>
	<path   d="M232.77,425.2c-2.11-0.63-5.88,0.79-7.31-1.11l-0.3,0.33c-1.29,1.08-2.33,3.12-2.97,4.65
		c0.34,1.22,0.79,2.21-0.03,3.32c-1.85,3.02-6.65-1.38-6.53,3.39c-0.24,0.32-0.49,0.46-0.74,0.46l0.72,0.21
		c1.71,4.51,2.04,6.56,0.92,8.4h0.01c0.41,0.87,0.8,1.66,1.2,2.38l0.19-0.1c4.02-1.76,11.95,3.65,12.62-2.45
		c0.17-2.45-1.25-5.99,1.96-7.1c2.41-1.14,4.91-0.68,7.42-0.45C236.15,433.63,239.86,426.01,232.77,425.2z"/>
	<path   d="M270.15,477.17c-7.27-8.59,5.11-1.77,8.61-5.71c0.98-1.37,1.97-2.76,2.89-4.17l-0.24-0.16
		c0.33-3.07-3.24-4.23-0.5-7.23c-3.32-2.92,0.23-5.04,1.11-8.13c-2.93-6.61-13.35,11.61-19.12,0.67c-0.51-0.97-0.99-2.18-1.42-3.65
		c-2.84-2.45-1.28-8.33-3.11-10.78c-0.67-0.91-1.81-1.35-3.8-0.97c-3.75-1.8-7.55-2.51-11.74,0.15c-0.96,0.09-1.93,0.03-2.9-0.06
		c0.02,0.02,0.04,0.04,0.06,0.06c-0.02-0.02-0.04-0.04-0.06-0.06c-2.51-0.23-5.01-0.69-7.42,0.45c-3.21,1.11-1.79,4.65-1.96,7.1
		c-0.67,6.1-8.6,0.69-12.62,2.45l-0.19,0.1c6.08,11.27,10.46,5.45,19.84,12.39c1.22,2.49,2.44,4.22,3.79,5.6l0.01,0.01
		c2.27,2.28,4.9,3.61,8.58,5.87c1.54,3.56,3.77,6.44,6.43,8.79c0.71,0.63,1.45,1.23,2.22,1.79c1.8,1.96,0.04,5.07,3.32,5.07
		c0.12,0,0.25,0,0.39-0.01c-0.14,0.01-0.27,0.01-0.39,0.01l0.63,0.13C264.69,483.14,269.94,481.76,270.15,477.17z"/>
	<path   d="M293.13,537.68c-0.09-0.01-0.17-0.03-0.26-0.04c-0.1-0.01-0.19-0.01-0.29-0.01c-4.07,0-6.12,7.59-10.01,6.44
		c0.66-7.06-4.28-3.75-8.31-4.7c-0.1-4.9-4.97,0.87-6.93-0.63c-1.13-4.76,8.01-7.25,2.17-11.12c11.12-13.92-8.81,2.64-6.28-10.36
		c6.27-20.53-6.85-10.13-1.07-29.52c0.12-0.3,0.26-0.59,0.41-0.86l-0.63-0.13c-3.28,0-1.52-3.11-3.32-5.07
		c-0.77-0.56-1.51-1.16-2.22-1.79l-0.01,0.01c-4.15,1.27-4,6.71-9,7.48c-2.31,1.4,0,4.96-2.52,6.3c-9.91-0.51-3.14,5.4-11.27,3.27
		c-6.3,4.38,2,7.94-10.13,7.49c-0.75,1.01-1.48,2.03-2.18,3.08c0.03,0.02,0.05,0.04,0.07,0.06c1.16,1.77-0.04,3.75,0.78,5.62
		c0.64,0.67,1.72,0.65,2.44,1.22c1.21,0,1.75-1.24,2.72-1.77c1.53-0.88,4-0.82,4.68,1.1c0.61,1.81-0.58,3.65-0.56,5.48
		c-0.44,1.96,1.88,1.57,3.1,2.04c2.93,1.24,4.93,3.19,5.33,6.43c0.36,1.91,0.72,4.19,0.41,6.2c-0.13,2.41-2.27,6.44,0.73,7.83
		c3.2,1.12,2.69-3.31,3.23-5.18c0.26-1.14,1.35-2.5,2.56-1.55c1.38,1.3,0.5,3.42,0.78,5.08c0.27,1.81,0.11,4.18,1.37,5.66
		c3.72,3,8.95,2.44,12.95,0.37c4.12-0.86,5.29,3.65,7.7,5.85c2.36,1.16,4.79-1.98,7.03-0.23c2.46,2.17,1.91,6.38,3.51,9.14
		c1.62,1.11,3.35,2.16,4.79,3.55c0.84,0.49,2.02,0.01,2.97,0c2.99-6.75,4.42,6.82,11.42,7.28c-0.02-0.01-0.02-0.04-0.01-0.06
		c1.85,0.12,2.96-1.42,4.33-2.38c1.81-1.36,3.74-3.03,4.57-5.27c-1.91-1.63-4.22-3.38-5.53-5.65c-0.31-1.16,0.54-2.39,0.2-3.6
		c-0.33-0.5-0.89-0.94-1.43-1.17c-1.04-1.26-0.46-3.19-0.31-4.69c0.05-0.15,0.11-0.27,0.18-0.37l-0.23-0.09
		C297.67,542.2,306.04,538.48,293.13,537.68z"/>
	<path   d="M233.59,496.95c8.13,2.13,1.36-3.78,11.27-3.27c2.52-1.34,0.21-4.9,2.52-6.3c5-0.77,4.85-6.21,9-7.48
		l0.01-0.01c-2.66-2.35-4.89-5.23-6.43-8.79c-3.68-2.26-6.31-3.59-8.58-5.87l-0.35,0.35c-9.29,4.43-7.21,12.57-16.9,1.52
		c-2.16-2.02-3.63-1.76-5.55,0.39c-8.48-1.8-3.55,9.52-5.81,14.09l-0.14,0.04c0.56,2.13,0.73,4.46,1.63,6.48
		c3.89,4.14,2.83,10.98,5.84,15.33c0.12,1.1,0.25,2.21,0.41,3.31l-0.43,0.04c0.45,0.19,0.86,0.44,1.2,0.74
		c0.7-1.05,1.43-2.07,2.18-3.08C235.59,504.89,227.29,501.33,233.59,496.95z"/>
	<path   d="M237.58,459.62c-9.38-6.94-13.76-1.12-19.84-12.39c-0.4-0.72-0.79-1.51-1.2-2.38h-0.01
		c-0.92,1.52-2.82,2.91-5.76,5.42c-2.93-0.94-4.17,0.96-6.88,1.17c-0.17,0.01-0.34,0.02-0.52,0.02l0.53,0.09
		c-0.55,8.34,2.25,13.95-7.71,16.92c-0.1,0.04-0.21,0.07-0.32,0.1l0.38,0.11c1.94,7.26,8.75,5,13.42,8.21
		c1.72,1.25,2.49,2.92,2.96,4.73l0.14-0.04c2.26-4.57-2.67-15.89,5.81-14.09c1.92-2.15,3.39-2.41,5.55-0.39
		c9.69,11.05,7.61,2.91,16.9-1.52l0.35-0.35l-0.01-0.01C240.02,463.84,238.8,462.11,237.58,459.62z"/>
	<path   d="M220.1,503.43c-3.01-4.35-1.95-11.19-5.84-15.33c-0.9-2.02-1.07-4.35-1.63-6.48
		c-0.47-1.81-1.24-3.48-2.96-4.73c-4.67-3.21-11.48-0.95-13.42-8.21l-0.38-0.11c-2.12-5.97-7.59,0.76-10.29-4.42
		c-3.04-2.98-6.3,1-8.08-4.98c-2.43-0.73-5.54,0.54-6.63-2.86c-2.96-0.32-4.41-3.38-5.95-5.6c-2.27,1.76-4.16,4.74-7.21,5.49
		c-0.52,0.32-0.86,0.29-1.1,0.07l-0.04,0.12c-0.51,2.07-1.08,4.47-1.24,6.85c-0.22,2.88,0.15,5.72,1.94,7.84
		c2.35-0.49,5.08-0.85,6.3,1.76c2.58,0.74,5.41,1.4,5.85,4.76c2.52,4.49-5.47,6.22-3.94,10.24c2.24,1.22,3.25,2.13,4.06,4.46
		c1.05,0.76,3.71,0.14,3.49,2c2.92,2.3,7.16,3.66,6,9.12l0.01,0.38c0.74-0.04,1.48,0.04,2.21,0.1c0.94,0.2,0.92,1.56,1.42,2.25
		c0.78,3.23-1.73,9.83,0.77,12.01c1.76,0.71,3.86,0.74,4.78-1.19c2.1-2.13,1.47-5.25,2.34-7.83c1.68-2.92,7.1,1.02,8.33,1.62
		c3.17,0.12,1.46-8.01,6.14-5.37c0.66,0.66,0.93,1.67,1.46,2.45c0.62,0.33,1.65,0.69,2.51,0.95c1.25,0.39,2.6-0.07,3.38-1.12
		c0.88-1.18,1.62-2.38,3.72-0.89c0.8,0.38,1.48-0.36,2.29-0.3c0.55-0.04,1.14,0.08,1.69,0.3l0.43-0.04
		C220.35,505.64,220.22,504.53,220.1,503.43z"/>
	<path   d="M173.03,494.3c0.22-1.86-2.44-1.24-3.49-2c-0.81-2.33-1.82-3.24-4.06-4.46c-1.53-4.02,6.46-5.75,3.94-10.24
		c-0.44-3.36-3.27-4.02-5.85-4.76c-1.22-2.61-3.95-2.25-6.3-1.76c-1.79-2.12-2.16-4.96-1.94-7.84l-0.35-0.03
		c-5.46,2.22-8.68-2.73-13.01-5.59c-6.55-1.95-4.46,4.55-10.03,7.59l0.63,0.08c1.5,5.52,1.49,12.3-3.1,15.9
		c-3.07,3.07-0.29,9.49-5.8,11c-4.56,3.2-11.8,3.24-6.26,9.85c-3.52,5.67,1.73,8.33,4.13,12.32l0.31,0.15
		c1.21-1.47,3.03-2.68,4.17-3.91c2.18-0.42,3.39,2.71,5.5,2.23c3.55-4.11,3.53,2.27,8.76-0.03l-0.16-0.38
		c4.86-2.83,17.03,1.26,17.42,7.65l-0.06,0.02c0.02,0,0.04,0,0.06,0c2.32,0.07,8.14-0.95,9.05-6.7c0.8-5.07-3.93-4.95,5.14-5.09
		c3.35,0.34,4.02-2.05,5.96-4.25c0.44-0.16,0.89-0.23,1.35-0.25l-0.01-0.38C180.19,497.96,175.95,496.6,173.03,494.3z"/>
	<path   d="M135.87,553.63c-5.1-11.86,1.38-0.4,6.75-5.02c4.29-0.09,0.63-7.12,1.28-10.15c-2.9-6.03,4.7-4.32,4.25-8.06
		c-9.55-2.12-3.78-8.71-7.79-17.63c-0.02,0.01-0.05,0.02-0.07,0.03h-0.01c-5.23,2.3-5.21-4.08-8.76,0.03
		c-2.11,0.48-3.32-2.65-5.5-2.23c-1.14,1.23-2.96,2.44-4.17,3.91c-0.89,1.07-1.44,2.27-1.16,3.7c12.69,0.19-7.71,12.92-11.72,9.39
		c-4.09,0.53-2.34-4.32-4.7-6.33c-4.17-3.66-7.77-5.97-13.41-4.59l-0.67,0.17c1.06,2.65,0.61,6.03,5.3,5.07
		c0.47,7.66,7.68-1.77,9.59,10.17c6.87,2.99,0.98,9.6,4.22,14.32c4.55,3.61,6.96,7.89,6.98,13.41c0,0.01,0,0.02,0,0.03
		c0,0.27-0.01,0.54-0.02,0.82c4.15,2.8,7.13,7.02,9.06,11.36v0.3c2.2-0.77,5.2-2.7,7.1-4.07c1.36-1.39,2.56-2.54,4.51-2.37v-0.05
		C139.69,555.05,127.55,562.78,135.87,553.63z"/>
	<path   d="M140.12,512.42l0.16,0.38h0.01c0.02-0.01,0.05-0.02,0.07-0.03c4.01,8.92-1.76,15.51,7.79,17.63
		c0.45,3.74-7.15,2.03-4.25,8.06c-0.65,3.03,3.01,10.06-1.28,10.15c-5.37,4.62-11.85-6.84-6.75,5.02
		c-8.32,9.15,3.82,1.42,1.06,12.21v0.05c0.19,0.01,0.4,0.04,0.61,0.08c0.73,0.18,2.15,0.41,3.03,0.95c2.6-0.06,5.32-1.24,7.86,0.02
		c1.34,1.63,1.64,2.17,3.96,2.32c1.95-0.14,10.29-0.03,10.06-2.57c-0.23-1.25-1.81-1.47-2.67-2.27c-2.61-1.79-5.21-4.75-4.03-8.12
		c1.83-0.37,2.88,2.16,4.7,2.32c1.92-1.3,0.55-18.62-1.16-19.55c-1.55-1.67-4.47-1.6-5.63-3.62c-0.62-2.43,2.9-3.08,3.5-5.26
		c0.53-2.15-2.36-2.66-2.76-4.54c-0.48-2.18,1.09-4.73,3.08-5.56l0.06-0.02C157.15,513.68,144.98,509.59,140.12,512.42z"/>
	<path   d="M116.26,560.67c0.01-0.28,0.02-0.55,0.02-0.82l-0.54-0.01c-3.39,1.26-11.02-2.44-8.98,3.49
		c-3.13,2.08-5.25-2.34-7.09,3.28l-0.85,0.04c0.22,0.11,0.36,0.27,0.46,0.47l0.58-0.12c5.86-1.61,4.8,3.98,6.34,7.41
		c1.4,0.52,7.18,1.77,4.34,3.79c-5.79,1.24-4.84,7.13-8.16,9.93c-3.07-0.28-6.03,1.93-7.28,0.49l-0.17,0.06
		c-2.04,0.48-3.83,1.51-6.19,2.13l-0.17-0.02c-0.13,1.37-1.06,2.61-1.75,3.82c-0.82,1.44,0.3,2.94,1.27,4
		c1.21,2.47,3.55,4.1,4.53,6.72c3.31,19.15-3.94,15.47,16.42,16.66c1.29-0.15,2.5,0.11,2.7-2.02c0.21-5.34,0.22-10.8-0.09-16.16
		c-0.36-5.06-1.31-6.83,3.57-9.62c0.89-0.57,0.85-1.65,1.34-2.49c1.29-1.92,4.84-1.55,5.68-3.59c-0.92-0.71-2.95-1.8-2.95-1.88
		c-0.16-2.8,3.22-5.77,1.3-8.45c-1.19-1.01-1.83-2.19-1.63-3.8c0.66-3.39,4.04-0.28,6.36-1.65v-0.3
		C123.39,567.69,120.41,563.47,116.26,560.67z"/>
	<path   d="M98.8,569.6c-1.34,1.13-2.82,1.21-4.26,0.87l-0.09,0.4c1.99,2.23-0.02,3.83-0.3,6.2
		c1.22,3.01-0.5,5.59,0.32,8.71c-0.01,1.49,0.21,2.37,0.63,2.84c1.25,1.44,4.21-0.77,7.28-0.49c3.32-2.8,2.37-8.69,8.16-9.93
		c2.84-2.02-2.94-3.27-4.34-3.79c-1.54-3.43-0.48-9.02-6.34-7.41l-0.58,0.12C99.61,567.84,99.24,569.02,98.8,569.6z"/>
	<path   d="M94.93,588.68l0.17-0.06c-0.42-0.47-0.64-1.35-0.63-2.84c-0.82-3.12,0.9-5.7-0.32-8.71
		c0.28-2.37,2.29-3.97,0.3-6.2l0.09-0.4c-4.7-1.09-8.87-6.66-5.69,4.96c1.25,4.16-6.23,4.91-3.21,9.09l-0.12,0.13
		c0.13,0.13,0.27,0.24,0.41,0.35c1.31,1.17,1.69,2.88,2.46,4.37c0.17,0.49,0.22,0.96,0.18,1.42l0.17,0.02
		C91.1,590.19,92.89,589.16,94.93,588.68z"/>
	<path   d="M88.85,575.43c-3.18-11.62,0.99-6.05,5.69-4.96c1.44,0.34,2.92,0.26,4.26-0.87c0.44-0.58,0.81-1.76,0.48-2.48
		c-0.1-0.2-0.24-0.36-0.46-0.47c-0.14-0.07-0.31-0.12-0.51-0.13c-2.2-0.19-4.96-2.09-5.68-4.38c-3.16-7.24-1.32,7.75-10.18,4.09
		h-0.86c-1.97,1.31-5.2,1.73-9.21,1.35l-0.36,0.05c0.6,4.43,0.29,8.52,5.28,11.63c3.14,0.54,5.91-2.34,6.81,2.84
		c0.19,0.96,0.7,1.87,1.41,2.55l0.12-0.13C82.62,580.34,90.1,579.59,88.85,575.43z"/>
	<path   d="M81.59,566.23c0.1-0.07,0.2-0.14,0.29-0.21c2.57-1.95,2.59-5.64-1.25-11.23c-0.14-2.42-1.03-3.11-2.28-3.14
		c-0.02,0-0.05,0-0.07,0c-1.47,0-3.42,0.87-5.22,0.93c-2.25,1.91-2.31,4.59-5.35,5.87c3.09,3.09,3.9,6.21,4.31,9.18l0.36-0.05
		C76.39,567.96,79.62,567.54,81.59,566.23z"/>
	<path   d="M73.06,552.58c1.8-0.06,3.75-0.93,5.22-0.93l0.1-0.62c-1.75-12.19,7.76-1.65-6.58-15.38l-0.4-0.24
		c-2.62,4.31-4.64,8.5-4.92-0.98c-3.61-5.26-10.22,3.49-10.44,7.81c0,0.01,0,0.01,0,0.01c0.71,1.43,1.16,2.99,1.44,4.6
		c2.84,3.83,6.39,7.27,9.54,10.94c0.24,0.22,0.47,0.44,0.69,0.66C70.75,557.17,70.81,554.49,73.06,552.58z"/>
	<path   d="M87.09,514.16l-0.26-0.01c-1.78,1.75-8.67-3.75-9.13,2.04c-0.9,4.63,0.68,10.5-2.07,14.37
		c-1.46,0.5-2.92,2.68-4.23,4.84v0.01l0.4,0.24c14.34,13.73,4.83,3.19,6.58,15.38l-0.1,0.62c0.02,0,0.05,0,0.07,0
		c1.25,0.03,2.14,0.72,2.28,3.14c3.84,5.59,3.82,9.28,1.25,11.23c-0.09,0.07-0.19,0.14-0.29,0.21h0.86
		c8.86,3.66,7.02-11.33,10.18-4.09c0.72,2.29,3.48,4.19,5.68,4.38c0.2,0.01,0.37,0.06,0.51,0.13l0.85-0.04
		c1.84-5.62,3.96-1.2,7.09-3.28c-2.04-5.93,5.59-2.23,8.98-3.49l0.54,0.01c0-0.01,0-0.02,0-0.03c-0.02-5.52-2.43-9.8-6.98-13.41
		c-3.24-4.72,2.65-11.33-4.22-14.32c-1.91-11.94-9.12-2.51-9.59-10.17c-4.69,0.96-4.24-2.42-5.3-5.07
		C89.69,515.63,88.88,514.56,87.09,514.16z"/>
	<path   d="M84.52,494.28c3.24,8.8-6.93,7.67,2.46,16.78c0.42,1.72,0.3,2.65-0.15,3.09l0.26,0.01
		c1.79,0.4,2.6,1.47,3.1,2.69l0.67-0.17c5.64-1.38,9.24,0.93,13.41,4.59c2.36,2.01,0.61,6.86,4.7,6.33
		c4.01,3.53,24.41-9.2,11.72-9.39c-0.28-1.43,0.27-2.63,1.16-3.7l-0.31-0.15c-2.4-3.99-7.65-6.65-4.13-12.32
		c-5.54-6.61,1.7-6.65,6.26-9.85c5.51-1.51,2.73-7.93,5.8-11c4.59-3.6,4.6-10.38,3.1-15.9l-0.63-0.08c-3.11,1.69-8.6,2.3-19.29-0.23
		c-1.27,2.76-5.59,8.26-7.7,8.28c-0.64-0.06-0.91-0.69-1.44-0.97c-0.92-0.57-2.14,0.52-2.74,1.23c-1.67,2.42-3.16,5.6-3.22,5.6
		c-1.94-0.96-2.25,1.27-3.91,1.81c-2.43-0.31-2.91-4.2-5.49-4.32c-1.3,0.21-2.63,0.88-3.97,0.41c-1.51-0.25-2.36-1.9-3.64-2.28
		c-1.92,0.1-6.13,3.55-5.26,5.48c1.59,0.78,5.5-2.96,5.55-0.22c0.15,0.74-1.04,1.81,0.07,2.17c3.32,5.99,0.7,7.49-3.32,4.57
		l-0.17,0.23C75.06,497.45,78.68,491.12,84.52,494.28z"/>
	<path   d="M66.48,534.43c0.28,9.48,2.3,5.29,4.92,0.98v-0.01c1.31-2.16,2.77-4.34,4.23-4.84
		c2.75-3.87,1.17-9.74,2.07-14.37c0.46-5.79,7.35-0.29,9.13-2.04c0.45-0.44,0.57-1.37,0.15-3.09c-9.39-9.11,0.78-7.98-2.46-16.78
		c-5.84-3.16-9.46,3.17-7.11-7.31l0.17-0.23c-0.57-0.41-1.17-0.91-1.78-1.5c-0.27-0.42-1.07-0.52-1.68-0.56
		c-1.28,0.29-2.52,0.27-3.42-0.88c-0.91-1.49-2.34-2.5-3.46-3.82c-1.55-0.7-3.23,4.63-3.49,5.8c2.39,1.89,4.48,8.05-0.79,4.77
		c-3.31-5.01-6.99,3.8-10.79,3.81c-1.56-0.06-1.52-2.61-3.19-2.65c-2.53-0.01-3.06-2.18-3.39-4.19c-0.87-1.23-3.72-2.51-3.72-2.58
		c0.39-3.02-2.8-4.25-4.65-5.97c-5.31-3.06-2.42-5.47-0.77-9.83c0.72-1.31,3.72-7.09,0.12-6.14c-4.87,7.49-3.42,3.2-4.13-2.45
		c0.01-0.45,0.06-1.17-0.11-1.63c-0.13-2.63-2.79-4.98-4.92-6.12c-1.15,1.06-1.66,3.47-3.61,3.3c-4.35-1.16-7.48-5.75-12.45-5.04
		c-6.65,1.17,3.41,4.57,2.58,6.73c-0.35,0.43-0.97,0.25-1.37,0.64c-0.58,0.71-0.4,2.55-0.12,3.39c2.08,1.31,1.81,1.91,0.52,3.77
		c-1.61,0.75-3.62,0.07-5.35-0.33c-1.08,0.3-0.67,2.17-0.84,3.08c-0.16,1.93-0.88,4.83,1.11,6.03c1.56,0.68,2.09,2.47,3.53,3.26
		c4.21,2.22,9.93,3.07,9.93,3.1c0.76,1.94,2.89,1.52,4.59,1.55c-0.06,0-0.08-0.03-0.09-0.07c4.9-4.71,4.17,2.02,5.96,4.79
		c2.01,0.86,4.51,3.41,6.57,1.42c0.95-1.42,2.26,0.46,2.97,1.26c0.57,1.56,0.39,3.36,0.69,5.04c0.45,3.34,0.11,6.96,0.67,10.35
		c0.01,1.59,1.39,2.57,1.81,4.05c0.87,2.65,1.01,5.51,2.16,8.07c1.49,4.69,1.65,10.25,1.38,15.21c-0.7,2.25,0.81,3.32,2.82,3.89
		c1.22,0.69,2.12,1.77,2.99,2.84c0.91,0.95,1.62,1.99,2.18,3.11C56.26,537.92,62.87,529.17,66.48,534.43z M53.69,530.36
		c-3.3-5.91,4.45-5.99,6.79-10.01c3.71-4.54-10.16-6.67-8.14-14.51c2.18-5.67,5,1.98,7.92,3.38c2.9,3.82,9.9,4.07,10.55,9.39
		c0.74,5.27-5.92,18.79-6.75,6.87C60.97,527.62,55.45,540.23,53.69,530.36z"/>
	<path   d="M263.03,230.55c-7.58,10.1,3.03,3.84,6.9,8.9l0.07,0.09c0.38-0.31,0.83-0.58,1.35-0.8
		c4.78,0.05,4.25,8.29,5.03,11.68c0.17,5.8,1.94,6.29,4.77,10.51c3.25,6.88,4.78,10.29,12.26,13.09c-0.01-0.02-0.01-0.04-0.01-0.06
		c31.1,3.85,16.6-27.24,17.56-45.82c0.44-6.05-5.67-9.24-8.52-13.78c1.46-4.38-0.85-3.52-2.32-6.75c0.09-0.65-0.38-1.96,0.61-1.9
		c1.77-0.96,2.13,2.06,3.57,2.2c1.44-1.79,0.26-7.16,0.08-7.27c-1.29-0.53-2.9,0.02-4.13-0.77c-0.83-1.5-0.58-6.53-3.21-3.11
		c-3.47,5.77-14.75-7.03-17.53-2.4c-1.9,4.34-4.63-0.68-9.4,4.84c0.06-0.06,0.12-0.07,0.18-0.05c-1.62,4.48,1.42,11.82-3.46,14.69
		c-3.88,0.95-7.86,0.27-11.2,3.01c-0.28,0.18-0.54,0.37-0.79,0.57C255.63,222.82,264.43,224.32,263.03,230.55z"/>
	<path   d="M205.61,299.65c3.34-0.37-0.83-9.11,3.54-4.78c2.29,3.86,4.73,8.74,8.12,11.74c2.02,1.8,4.39,2.92,7.27,2.75
		c2.51,0.34,3.47,2.87,4.66,4.85c0.91,1.5,1.97,2.68,3.95,2.34c3.7-0.81,3.42-6.75,6.06-9.3c14.46-9.25-5.6-7.57,5.59-21.83
		c6.73,0.63,5.68,4.3,9.76-3.3l-0.21-0.11c-0.78,0-2.23-0.76-2.57-1.12c-1.06-2.36,3.76-1.84,3.06-5.13
		c-1.4-4.08-7.12-6.14-0.47-8.75c0.8-0.96,1.74-1.52,3-1.33c0.24-1.16,0.84-2.39,0.84-3.6c-0.38-0.44-0.34-0.97-0.28-1.53
		c0.09-1.24,1.78-2.48,2.97-2.56c0.73,0.29,1.54,0.31,2.26,0.04c2.55,0.56,2.51-0.18,3.48-2.3c0.02,0.06,0.04,0.12,0.06,0.17h0.26
		c2.54-4.6-1.26-12.93,3.04-16.36l-0.07-0.09c-3.87-5.06-14.48,1.2-6.9-8.9c1.4-6.23-7.4-7.73-8.19-13.13
		c-5.53,4.3-2.56,11.2-9.7,13c-3.79,1.63-5.95,6.32-10.55,6c-0.7,0.09-1.61,0.09-2,0.77c-0.64,3.54,1.38,6.24-3.24,7.39
		c0.06-0.02,0.09-0.05,0.07-0.1c-3.58-0.21-0.78,5.11-2.59,6.85c-1.66,1.28-2.62,0.28-4.22-0.13c-5.94-1.02-0.6,12.77-4.09,15.84
		c-5.02,6.19-19.53,4.12-30.6,3.27C186.1,283.34,197.93,291.38,205.61,299.65z"/>
	<path   d="M254.57,282.1c0,0.01-0.01,0.01-0.01,0.02c-4.08,7.6-3.03,3.93-9.76,3.3c-11.19,14.26,8.87,12.58-5.59,21.83
		c-2.64,2.55-2.36,8.49-6.06,9.3c-1.98,0.34-3.04-0.84-3.95-2.34l-0.04,0.02c-0.99,5.05-3.82,11.42-0.81,16.12
		c5.43,4.21,8.81,12.39,16.39,12.27c4.94,2.93,7.85,10.11,14.35,8.91c3.24,4.32,4.71,10.6,11.64,8.14c3.51,5.53-0.61,3.63,6.81,8.11
		l0.46,0.68c2.44-2.69,4.25-3.45,6.96,6.25c2.99-2.38,7.22-1.47,11.16-1.33c7.24-3.56-3.01-8.37,9.04-12.49
		c6.37-6.73-1.64-11.77-6.54-4.66c-3.67-2.15-10.99-1.08-5.7-7.65c14.33-9.73,1.04-8.6,10.47-16.35c2.77-5.5-7.53-7.28-5.71-12.92
		c3.11-3.75,7.85,1.51,10.74,3.36c2.06,4.71,26.16,20.01,23.14,9.67c0.51-14.07-8.89-9.12,6.95-20.44l0.08-0.13
		c-1.02-0.59-1.84-1.82-3.51-2.45c-12.96,3.86-16.39-8.04-22.18-16.77l0.03-0.06c-0.77-0.36-1.3-0.97-2.05-1.37
		c0.15,0.04,0.07-0.02,0.06-0.07c0-0.42-0.4-0.35-0.64-0.54c-0.24-0.19-0.2-0.4,0-0.6c0.22-0.44,0.21-1.11,0.8-1.23
		c2.46-2.64-0.29-2.56-1.98-4.04c-1.89-2.46-2.3-7.9-5.55-2.78c-1.09,1.09-2.92,1-3.87,1.79c-0.84-0.21-1.47-0.65-2.29-0.92
		c-1.23-1.6-3.89-2.23-5.88-1.31c-2.19,0.09-4.37-0.27-6.58-0.14c-1.86,0.55-2.06,8.85-3.48,11.33c-0.47,1.27-1.72,1.7-2.9,2.12
		c-1.29,0.21-1.91-1.75-2.83-2.49c-0.12-0.96-1.49-2.45-1.93-3.63c-0.75-1.37-0.39-3.16-1.41-4.37c-1.35-0.18-3.26-0.42-1.44-1.95
		c0.32,0.01,0.86-0.06,0.82-0.48c0.03-1.39-0.99-2.63-0.67-4.12c-0.26-2.05,0.71-5.77-2.47-5.41c-2.62,3.75-2.09,1.27-5.62,1.42
		c-1.26,0.78-1.15,1.37-1.1,2.92c-0.04,1.37-0.82,2.57-1.33,3.82c-0.69,3.62,2.12,3.01,2.97,5.55c-1.19,3.97-6.02,7.64-8.11,2.1
		c0.08-2.24-0.14-4.14-0.64-6.31c-0.05,0.11-0.15,0.18-0.28,0.21c-0.06,0.01-0.12,0.02-0.18,0.02l0.21,0.11
		C254.56,282.11,254.57,282.11,254.57,282.1z"/>
	<path   d="M186.28,327.65c-0.74,2.72,3.84,3.07,4.04,5.58c0.23,2.19-0.95,4.9,1.03,6.55l-0.04,0.35
		c0.78,0.13,1.61,0.17,2.49,0.1c2.94,0.77,4.01,2.99,3.63,5.19l0.24,0.03c3.79,6.2,17.07,4.06,16.52,9.46
		c0.14,2.81,0.95,7.09,3.38,8.76c3.63-2.87,7.11-3.94,9.94,0.03c2.46,2.19,3.02-1.49,4.83-2.04c5.92,6.37,11.89,13.95,18.04,20.5
		c11.81,8,6.42-9.85,15.36,3.87l0.1,0.06c3.78-6.39-2.18-10.12,2.1-12.04c4.83,1.3,7.74-3.03,10.06-5.59l-0.46-0.68
		c-7.42-4.48-3.3-2.58-6.81-8.11c-6.93,2.46-8.4-3.82-11.64-8.14c-6.5,1.2-9.41-5.98-14.35-8.91c-7.58,0.12-10.96-8.06-16.39-12.27
		c-3.01-4.7-0.18-11.07,0.81-16.12l0.04-0.02c-1.19-1.98-2.15-4.51-4.66-4.85c-2.88,0.17-5.25-0.95-7.27-2.75l-0.11,0.13
		c-11.57,9.2-15.36-4.59-19.69,17.54c-2.32-0.16-3.86-0.14-6.12,1.17c-1.14-0.06-2.28-0.19-3.23,0.13
		c-0.03,0.01-0.05,0.02-0.08,0.03C187.28,325.9,186.66,326.48,186.28,327.65z"/>
	<path   d="M153.76,298.08c0.31,1.67,1.6,2.71,5.2,2.44c1.92,2.03,4.73,1.68,6.46-0.19c2.32-2.21,4.54-0.18,5.36,2.15
		c4.75-1.52,5.15,2.97,5.53,6.52c3.84,1.4,4.46,4.83,8.11,6.74c1.89,1.52-0.23,4.01,1.06,5.64c1.4,0.85,2.8,1.96,2.38,3.81
		l0.18,0.42c0.03-0.01,0.05-0.02,0.08-0.03c0.95-0.32,2.09-0.19,3.23-0.13c2.26-1.31,3.8-1.33,6.12-1.17
		c4.33-22.13,8.12-8.34,19.69-17.54l0.11-0.13c-3.39-3-5.83-7.88-8.12-11.74c-4.37-4.33-0.2,4.41-3.54,4.78
		c-7.68-8.27-19.51-16.31-17.69-29.34c-3.21-0.25-6.13-0.4-8.45-0.21c-1.95,0.29-5.98-1.2-6.64,1.22c0.04,0.68,0.55,1.29,0.38,2.02
		c-3.16,5.54-1.59,6.26,2.38,10.46c0.29,1.98-1.2,1.5-2.5,0.7c-1.69-0.73-3.52-1.27-5.08-2.32c-3.83-2.04-6.26-5.68-10.65-2.24
		c-1.91,1.45-3.88,2.98-5.82,4.59l-0.01,0.01l0.31,0.36C157.06,287.74,153.09,294.43,153.76,298.08z"/>
	<path   d="M152.9,329.71c4.91-2.97,12.15,4.25,14.9-1.61c0.28-6.15,5.42-1.16,7.19,1.71c0.94,1.32-0.1,5.98,2.94,4.41
		c5.28,0.89,8.49,5.1,13.36,5.91c0.01,0,0.01,0,0.02,0l0.04-0.35c-1.98-1.65-0.8-4.36-1.03-6.55c-0.2-2.51-4.78-2.86-4.04-5.58
		c0.38-1.17,1-1.75,1.76-2.04l-0.18-0.42c0.42-1.85-0.98-2.96-2.38-3.81c-1.29-1.63,0.83-4.12-1.06-5.64
		c-3.65-1.91-4.27-5.34-8.11-6.74c-0.38-3.55-0.78-8.04-5.53-6.52c-0.82-2.33-3.04-4.36-5.36-2.15c-1.73,1.87-4.54,2.22-6.46,0.19
		c-3.6,0.27-4.89-0.77-5.2-2.44l-0.09,0.02c-6.65,1.24-4.39,5.5-5.55,10.77c-3.34,4.74-8.7,11.06-7.74,16.32l-0.25,0.69
		c0.08,0,0.16,0,0.23,0C144.71,325.92,149,327.71,152.9,329.71z"/>
	<path   d="M131.01,339.87l0.22-0.16c7.12-2.53,2.75-10.98,7.31-13.74c0.53-0.06,1.07-0.09,1.59-0.09l0.25-0.69
		c-0.96-5.26,4.4-11.58,7.74-16.32c1.16-5.27-1.1-9.53,5.55-10.77l0.09-0.02c-0.67-3.65,3.3-10.34-1.92-13.18l-0.31-0.36
		c-3.47,2.87-6.81,6.02-9.53,9.56c-1.28,1.44-1.24,5.7-3.89,4.79c-1.31-0.82,0.29-2.58,0.47-3.69c1.26-3.07-0.32-2.55-2.71-3.01
		c-3.83,1.38-3.97,6.98-7.23,9.25c-2.37,0.36-5.48-1.83-4.9,2.35c1.63,7.66-6.3,4.9-6.46,9.56c0.65,2.98,2.79,5.51,3.41,8.55
		c0.35,1.89-0.08,3.83-0.06,5.74c0.33,0.9,1.31,1.23,2.01,1.8c1.73,1.47,2.62,5.27,2,6.98
		C127.66,336.36,129.51,337.83,131.01,339.87z"/>
	<path   d="M122.33,371.65h0.01c-0.23-1.33,0.26-2.78,2.75-4.7c4.55-3.63,6.45,7.59,11.93,4.06
		c4.82,1.44,7.21-2.44,10.33-5.04c0.05,0,0.09,0,0.13,0c2.06-0.01,2.24-1.08,2.84-2.62c3.22-0.01,3.2-2.96,3.61-4.74v-0.38
		c-6.3-5.21-4.9-10.52-14.74-7.97c-4.2-2.12-5.7-7.03-8.18-10.39c-1.5-2.04-3.35-3.51-6.37-3.45c-1.68,4.61-8.77,9.48-12.96,14.74
		c-1.85,3.35,3,4.91-1.33,9.99c-0.13,2.53,0.65,5.87,0.11,8.37l0.24,0.06C114.37,371.5,119.53,368.92,122.33,371.65z"/>
	<path   d="M222.21,394.6l2.49-1.02c-3.14-5.02-8.35-6.98-11.67-11.34c-1.82-2.16-4.05,1.71-6.33-0.03
		c-1.69-1.96-3.31-3.63-5.1-4.72c-2.19-1.32-4.64-1.77-7.79-0.82c-1.35,0.35-2.7,0.73-4.04,1.14l-0.63,0.08
		c1.43,1.49,0.53,3.01,0.92,7.47c2.24,1.49,4.96,1.57,4.53,5.36c5.02,2.85,7.55,7.67,12.4,10.8l0.1,0.09
		c0.03-0.02,0.07-0.04,0.1-0.06c0.01-0.08,0.02-0.15,0.03-0.23c-0.01,0.08-0.02,0.15-0.03,0.23c1.28-0.71,2.55-1.42,3.82-2.14
		C214.32,394.48,218.39,394.11,222.21,394.6z"/>
	<path   d="M189.16,410.87l0.45,0.02c0.51-1.18,1.98-1.87,5.22-1.73c6.74-0.85,11.28,1.35,12.36-7.61
		c-0.03,0.02-0.07,0.04-0.1,0.06l-0.1-0.09c-4.85-3.13-7.38-7.95-12.4-10.8c0.43-3.79-2.29-3.87-4.53-5.36
		c-0.39-4.46,0.51-5.98-0.92-7.47c-0.64-0.67-1.75-1.34-3.65-2.26c-1.35-0.59-2.7-1.19-4.04-1.79l-0.09-0.07
		c-1.23,1.39-3.19,2.13-4.98,3.17c-8.58,11.07,9.71,12.18,3.51,22.61l0.1,0.1C182.51,404.17,185.29,407.64,189.16,410.87z"/>
	<path   d="M247.26,400.38c0.07,0.06,0.13,0.11,0.19,0.17C247.39,400.49,247.33,400.44,247.26,400.38
		c-1.01-0.86-2.77-1.6-4.26-1.65c-4.31-0.01-5.59-7.53-10.12-4.77c-1.85,2.36-4.95,1.63-8.44,0.99c-0.73-0.13-1.48-0.26-2.23-0.35
		c-3.82-0.49-7.89-0.12-11.2,4.81c-1.27,0.72-2.54,1.43-3.82,2.14c-1.08,8.96-5.62,6.76-12.36,7.61c-3.24-0.14-4.71,0.55-5.22,1.73
		c-0.54,1.28,0.02,3.13,0.67,5.14c0.47,1.45,0.99,2.98,1.2,4.44c9.3,0.64,5.85,21.55,16.58,11.65c2.49-3.62,4.9,4.12,6.83,4.12
		c0.25,0,0.5-0.14,0.74-0.46c-0.12-4.77,4.68-0.37,6.53-3.39c0.82-1.11,0.37-2.1,0.03-3.32c0.64-1.53,1.68-3.57,2.97-4.65l0.3-0.33
		c-0.21-0.28-0.37-0.64-0.47-1.09c-2.74-13.63,6.35-12.01,14.16-7.33h0.01l0.42-0.68c-0.03,0.05-0.06,0.1-0.1,0.14
		c0.04-0.04,0.07-0.09,0.1-0.14c1.44-2.11,1.73-9.14,5.11-3.91c9.33,1.23,11.26-5.78,2.86-10.93l-0.01,0.01l0.01-0.01
		c-0.03-0.02-0.07-0.04-0.11-0.06L247.26,400.38z"/>
	<path   d="M203.9,451.55l-0.53-0.09c-0.11,0-0.23,0-0.34-0.01c-1.97-2.86-6.78-2.28-7.15-6.75
		c-1.98-4.63-4.14,4.81-6.31-3.02c-2.77-8.83-10.59-5.3-12.19-12.78l-0.3-0.39c-0.81,0-1.72-0.5-2.63-1.13l-0.1,0.47
		c-1.21,2.17-2.9,3.24-0.65,5.51c-0.53,1.63-0.41,2.98,0.01,4.74c-5.65,2.55,1.16,8.73-3.88,11.54c-2.01-0.62-3.53,0-4.91,1.07
		c1.54,2.22,2.99,5.28,5.95,5.6c1.09,3.4,4.2,2.13,6.63,2.86c1.78,5.98,5.04,2,8.08,4.98c2.7,5.18,8.17-1.55,10.29,4.42
		c0.11-0.03,0.22-0.06,0.32-0.1C206.15,465.5,203.35,459.89,203.9,451.55z"/>
	<path   d="M215.61,436.45l-0.72-0.21c-1.93,0-4.34-7.74-6.83-4.12c-10.73,9.9-7.28-11.01-16.58-11.65
		c-0.21-1.46-0.73-2.99-1.2-4.44l-0.61,0.2c-4.47,4.93-3.38,6.19-10.36,9.58c-0.44,1.82-1.14,2.56-1.98,2.68
		c-0.08,0.01-0.17,0.02-0.25,0.02l0.3,0.39c1.6,7.48,9.42,3.95,12.19,12.78c2.17,7.83,4.33-1.61,6.31,3.02
		c0.37,4.47,5.18,3.89,7.15,6.75c0.11,0.01,0.23,0.01,0.34,0.01c0.18,0,0.35-0.01,0.52-0.02c2.71-0.21,3.95-2.11,6.88-1.17
		c2.94-2.51,4.84-3.9,5.76-5.42C217.65,443.01,217.32,440.96,215.61,436.45z"/>
	<path   d="M179.31,425.81c6.98-3.39,5.89-4.65,10.36-9.58l0.61-0.2c-0.65-2.01-1.21-3.86-0.67-5.14l-0.45-0.02
		c-3.87-3.23-6.65-6.7-9.17-11.22l-0.1-0.1c-6.96-4.65-8.8,4.2-14.73-2.49c-2.95,0.59-4.27,6.86-7.75,5.3l-0.69-0.01
		c-0.02,0.6,0,1.25,0.06,1.94c-0.95,2.07-2.38,3.52-3.98,4.8c-1.39,4.51,2.83,6.48,4.73,9.43l0.11-0.07
		c9.27,1.22,5.84,8.65,10.69,6.15c1.21-0.53,2.7-0.33,3.49,0.82c0.81,0.55,1.71,1.32,2.63,1.96c0.91,0.63,1.82,1.13,2.63,1.13
		c0.08,0,0.17-0.01,0.25-0.02C178.17,428.37,178.87,427.63,179.31,425.81z"/>
	<path   d="M148.83,431.97c-1.22-8.72,5.99-0.01,8.81-13.28c-0.04-0.06-0.07-0.12-0.11-0.17
		c-1.9-2.95-6.12-4.92-4.73-9.43c-2.22,1.79-4.79,3.23-6.95,5.51c-0.78,1.04-7.34-3.95-8.31-4.95l-0.1-0.04
		c-0.69,2.14-4.27,1.25-5.38,3.4c-0.16,3.15-1.65,7.11-4.39,7.66c-0.22,0.05-0.45,0.07-0.68,0.07l0.76,0.27
		c0.37,2.02,1.71,3.32,3.38,4.36c2.26,1.39,5.15,2.3,7.13,3.82c-0.27,5.76,4.18,10.81,7.44,10.81h0.01c0.09,0,0.18,0,0.27-0.01
		C148.01,439.82,149.48,437.52,148.83,431.97z"/>
	<path   d="M169.83,449.64c5.04-2.81-1.77-8.99,3.88-11.54c-0.42-1.76-0.54-3.11-0.01-4.74
		c-2.25-2.27-0.56-3.34,0.65-5.51l0.1-0.47c-0.92-0.64-1.82-1.41-2.63-1.96c-0.79-1.15-2.28-1.35-3.49-0.82
		c-4.85,2.5-1.42-4.93-10.69-6.15l-0.11,0.07c0.04,0.05,0.07,0.11,0.11,0.17c-2.82,13.27-10.03,4.56-8.81,13.28
		c0.65,5.55-0.82,7.85-2.85,8.02c-0.09,0.01-0.18,0.01-0.27,0.01l0.27,0.02c-2.28,5.42,2.99,10.49,8.2,12.28
		c1.98,0.11,1.64,3.2,2.43,3.97c0.24,0.22,0.58,0.25,1.1-0.07c3.05-0.75,4.94-3.73,7.21-5.49c-0.01-0.01-0.01-0.02-0.02-0.03
		c0.01,0.01,0.01,0.02,0.02,0.03C166.3,449.64,167.82,449.02,169.83,449.64z"/>
	<path   d="M131.94,465.21c5.57-3.04,3.48-9.54,10.03-7.59c4.33,2.86,7.55,7.81,13.01,5.59l0.35,0.03
		c0.16-2.38,0.73-4.78,1.24-6.85l0.04-0.12c-0.79-0.77-0.45-3.86-2.43-3.97c-5.21-1.79-10.48-6.86-8.2-12.28l-0.27-0.02h-0.01
		c-3.26,0-7.71-5.05-7.44-10.81c-1.98-1.52-4.87-2.43-7.13-3.82l-0.13,0.2c-4.51,3.05-2.66-0.4-6.31,4.51
		c-0.97,0.21-0.89,0.93-0.72,1.71c0.11,0.57,0.27,1.16,0.09,1.61c-1.23,1.89-1.64,3.28-0.78,5.55c0.06,2.58-3.46,2.8-3.97,5.05
		c-0.09,1.41-0.24,3.15-1.62,3.85c-1.83,1.06-1.36,3.13-2.24,4.59c-1.7,1.38-3.54,2.57-3.76,4.96c1.13,2.04,1.78,4.29,1.27,6.77
		c-0.06,0.23-0.16,0.5-0.31,0.81C123.34,467.51,128.83,466.9,131.94,465.21z"/>
	<path   d="M114.38,422.5c2.56,3.77,6.64,5.55,9.48,9.31l0.11-0.02c-0.17-0.78-0.25-1.5,0.72-1.71
		c3.65-4.91,1.8-1.46,6.31-4.51l0.13-0.2c-1.67-1.04-3.01-2.34-3.38-4.36l-0.76-0.27c-0.82,0-1.73-0.29-2.74-0.97
		c-7.07-4.8,0.09-10.51-6.06-17c-2.91-2.11-7.02-2.34-7.49-6.61c-2.09,2.13-4.38,1.78-10.19,2.97h-0.03
		c0.21,1.54,0.29,2.95-1.84,3.03c-14.89-1.1,1.51,7.02-0.22,13.29l0.28,0.1C101.65,420.9,109.02,420.9,114.38,422.5z"/>
	<path   d="M115.45,452.44c0.88-1.46,0.41-3.53,2.24-4.59c1.38-0.7,1.53-2.44,1.62-3.85c0.51-2.25,4.03-2.47,3.97-5.05
		c-0.86-2.27-0.45-3.66,0.78-5.55c0.18-0.45,0.02-1.04-0.09-1.61l-0.11,0.02c-2.84-3.76-6.92-5.54-9.48-9.31
		c-5.36-1.6-12.73-1.6-15.68-6.95l-0.28-0.1c-0.09,0.3-0.21,0.6-0.38,0.89c-2.95,5.67-11.01,3.89-3.98,11.09
		c1.69,1.97,1.88,4.75,4.22,6.35c2.64,4.23,6.06-1.46,8.38,4.56c-0.28,2.03-2.59,3.46-3.05,5.5c-0.16,1.31,1.09,2.27,1.45,3.49
		c0.78,0.31,1.63,0.4,2.4,0.75c1.94,1.17,1.39,3.81,1.55,5.55c0.97,1.18,1.93,2.43,2.68,3.77
		C111.91,455.01,113.75,453.82,115.45,452.44z"/>
	<path   d="M110.7,396.16c1.13-1.17,2.21-3.06,3.77-6.33c2.57-1.95,5.37,2.16,7.52-0.51c1.05-0.65,1.46-1.39,1.51-2.18
		c-0.01-0.01-0.01-0.01-0.02-0.01c0.01,0,0.01,0,0.02,0.01c0.19-2.83-4.22-6.34,0.14-8.65c1.21-2.89-0.95-4.71-1.3-6.84h-0.01
		c-2.8-2.73-7.96-0.15-11.63-2.07l-0.24-0.06c-0.43,1.96-1.69,3.42-4.86,3.55c-3.33-2.11-4.49-6.38-6.37-9.6
		c-0.99-1.03-2.12,1.04-2.87,1.66c0,0.04-5.32,8.15-8.87,11.55c-2.28,3.71,3.71,4.03,5.79,5.77c4.02,2.52,8.46,5.67,10.18,10.27
		c-0.02,1.18-0.99,1.95-1.98,2.59c-1.56,0.62-1.21,2.29-1,3.82h0.03C106.32,397.94,108.61,398.29,110.7,396.16z"/>
	<path   d="M132.06,413.01c1.11-2.15,4.69-1.26,5.38-3.4c0.09-0.23,0.13-0.51,0.13-0.83c1.82-4.36-3.2-5.84-4.77-9.03
		c0.04-2.9-0.53-5.41-1.73-7.43c-1.51-2.57-4.03-4.36-7.57-5.18c-0.05,0.79-0.46,1.53-1.51,2.18c-2.15,2.67-4.95-1.44-7.52,0.51
		c-1.56,3.27-2.64,5.16-3.77,6.33c0.47,4.27,4.58,4.5,7.49,6.61c6.15,6.49-1.01,12.2,6.06,17c1.01,0.68,1.92,0.97,2.74,0.97
		c0.23,0,0.46-0.02,0.68-0.07C130.41,420.12,131.9,416.16,132.06,413.01z"/>
	<path   d="M156.78,404.29c-0.06-0.69-0.08-1.34-0.06-1.94c0-0.01,0-0.01,0-0.02c0.05-2.66,0.83-4.63,2.24-7.32
		c-0.23-2.83-6.66-3.52-4.35-7.2c-0.14-0.9-0.41-1.69-0.61-2.43l-0.72,0.2c-7.63,4.86-5.74-0.46-10.19,0.22
		c-2.04,1.18-5.83-1.35-6.83,2.24c-2.13,1.39-3.98,1.06-4.91,4.12l-0.28,0.16c1.2,2.02,1.77,4.53,1.73,7.43
		c1.57,3.19,6.59,4.67,4.77,9.03c0,0.32-0.04,0.6-0.13,0.83l0.1,0.04c0.97,1,7.53,5.99,8.31,4.95c2.16-2.28,4.73-3.72,6.95-5.51
		C154.4,407.81,155.83,406.36,156.78,404.29z"/>
	<path   d="M131.07,392.32l0.28-0.16c0.93-3.06,2.78-2.73,4.91-4.12c1-3.59,4.79-1.06,6.83-2.24
		c4.45-0.68,2.56,4.64,10.19-0.22l0.72-0.2c-0.44-1.65-0.46-3.04,2.48-4.83c3.61-5.88-9.93-7.42-9-14.45v-0.13
		c-0.04,0-0.08,0-0.13,0c-3.12,2.6-5.51,6.48-10.33,5.04c-5.48,3.53-7.38-7.69-11.93-4.06c-2.49,1.92-2.98,3.37-2.75,4.7
		c0.35,2.13,2.51,3.95,1.3,6.84c-4.36,2.31,0.05,5.82-0.14,8.65C127.04,387.96,129.56,389.75,131.07,392.32z"/>
	<path   d="M156.48,380.55c-2.94,1.79-2.92,3.18-2.48,4.83c0.2,0.74,0.47,1.53,0.61,2.43c-2.31,3.68,4.12,4.37,4.35,7.2
		c-1.41,2.69-2.19,4.66-2.24,7.32c0,0.01,0,0.01,0,0.02l0.69,0.01c3.48,1.56,4.8-4.71,7.75-5.3c5.93,6.69,7.77-2.16,14.73,2.49
		c6.2-10.43-12.09-11.54-3.51-22.61c1.79-1.04,3.75-1.78,4.98-3.17c0.68-0.76,1.13-1.7,1.21-3v-0.01c0-0.01,0-0.01,0-0.02
		l-0.12-0.06c-3.1-4.55-4.81-1.37-7.54-4.92c-2.17-0.89-5.47,0.97-6.68-2.1c-1.27,0.2-3.44,1.19-4.27-0.27
		c1.16-11.9-2.74-2.69-9.66-4.78h-0.37c-0.41,1.78-0.39,4.73-3.61,4.74c-0.6,1.54-0.78,2.61-2.84,2.62v0.13
		C146.55,373.13,160.09,374.67,156.48,380.55z"/>
	<path   d="M163.96,363.39c0.83,1.46,3,0.47,4.27,0.27c1.21,3.07,4.51,1.21,6.68,2.1c2.73,3.55,4.44,0.37,7.54,4.92
		l0.12,0.06c0,0.01,0,0.01,0,0.02v0.01l0.13,0.01c10.92-2.12,3.28-16.12,10-20.39c2.65-0.74,4.36-2.84,4.73-4.97
		c0.38-2.2-0.69-4.42-3.63-5.19c-0.88,0.07-1.71,0.03-2.49-0.1c-0.01,0-0.01,0-0.02,0c-4.87-0.81-8.08-5.02-13.36-5.91
		c-3.04,1.57-2-3.09-2.94-4.41c-1.77-2.87-6.91-7.86-7.19-1.71c-2.75,5.86-9.99-1.36-14.9,1.61c-3.9-2-8.19-3.79-12.54-3.83
		c-0.07,0-0.15,0-0.23,0c-0.52,0-1.06,0.03-1.59,0.09c-4.56,2.76-0.19,11.21-7.31,13.74l-0.22,0.16c2.48,3.36,3.98,8.27,8.18,10.39
		c9.84-2.55,8.44,2.76,14.74,7.97v0.38h0.37C161.22,360.7,165.12,351.49,163.96,363.39z"/>
	<path   d="M185.49,375.63c1.9,0.92,3.01,1.59,3.65,2.26l0.63-0.08c1.34-0.41,2.69-0.79,4.04-1.14
		c3.15-0.95,5.6-0.5,7.79,0.82l0.94-0.17c4.36-1.89,9.85-9.59,15.03-13.65c-2.43-1.67-3.24-5.95-3.38-8.76
		c0.55-5.4-12.73-3.26-16.52-9.46l-0.24-0.03c-0.37,2.13-2.08,4.23-4.73,4.97c-6.72,4.27,0.92,18.27-10,20.39l-0.13-0.01
		c-0.08,1.3-0.53,2.24-1.21,3l0.09,0.07C182.79,374.44,184.14,375.04,185.49,375.63z"/>
	<path   d="M202.54,377.32l-0.94,0.17c1.79,1.09,3.41,2.76,5.1,4.72c2.28,1.74,4.51-2.13,6.33,0.03
		c3.32,4.36,8.53,6.32,11.67,11.34l-2.49,1.02c0.75,0.09,1.5,0.22,2.23,0.35c3.49,0.64,6.59,1.37,8.44-0.99
		c4.53-2.76,5.81,4.76,10.12,4.77c1.49,0.05,3.25,0.79,4.26,1.65l0.18-0.29c-0.03-0.02-0.06-0.04-0.09-0.06
		c0.03,0.02,0.06,0.04,0.09,0.06c0.04,0.02,0.08,0.04,0.11,0.06c10.33-12.64,15.53,5.55,17.22-12.51c0.42-0.53,0.78-1.05,1.07-1.55
		l-0.1-0.06c-8.94-13.72-3.55,4.13-15.36-3.87c-6.15-6.55-12.12-14.13-18.04-20.5c-1.81,0.55-2.37,4.23-4.83,2.04
		c-2.83-3.97-6.31-2.9-9.94-0.03c0.11,0.09,0.24,0.16,0.36,0.23c-0.12-0.07-0.25-0.14-0.36-0.23
		C212.39,367.73,206.9,375.43,202.54,377.32z"/>
	<path   d="M1140.2,334.05c-1.95-4.34-0.35-10.11-5.06-13.2c-3.97-3.5-3.84-10.84-9.13-12.83
		c-1.09-0.14-2.64,0.25-3.25-0.99c-0.81-1.35,0.52-1.67,1.6-1.54c1.75-0.29,3.12-1.73,1.51-3.25c-2.75-3.69-1.26-7.03,3.12-7.84
		c0.79-0.6,0.76-2.38-0.5-2.24c-4.22-0.35-8.4-1.96-11.94-4.28c-2.18-3.36-3.17-7.89-3.83-11.73c2.51-2.31,4.95-4.86,4.78-8.63
		c1.15-3.4-10.14-1.28-13.91-6.5c-2.18-3.3-6.01-6.52-5.6-10.81c1.34-2.8,6.12,0.49,5.09-4.33c0.16-1.06-0.44-1.4-1.4-1.31
		c-3.21-0.82-4.99-6.32-8.55-5.46c-0.94,1.19-0.68,2.99-2.02,3.87c-2.05,0.77-0.91-3.94-4.55-2.15c-3.72,1.16-3-7.26-5.78-9.06
		c-2.22-2.11-5.31,0.07-5.1,2.85c0.78,4.33-3.85,3.21-6.65,3.32c-3.36-4.7-6.43-10.76-10.03-15.58c-0.82-1.07-1.68-2.34-2.86-2.99
		c-0.97-0.29-1.8-0.63-2.55-1.35c-1.41-1.95-3.03-4.39-3.28-6.79c-0.12-1.31,1.37-0.54,1.81-1.52c1.04-0.89,0.13-1.71-0.49-2.45
		c-0.54-1.29,4.44-0.57,5.17-0.55c2.94-0.06,2.43-2.88,0.35-4.06c-2.27-1.98-4.45-4.77-3.61-7.97c0.11-0.61,0.17-1.44,1.04-1.23
		c1.04-0.18,1.45,0.84,2.37,1.09c0.61,0.17,0.99,0.21,1.47,0.68c2.66,2.93,2.51,1.15,3.17-1.61c-1.33-1.18-2.61-3.33-3.96-4.8
		c-1.78-4.34,3.61-1.32-0.21-6.59c-1.53-2.93,1.08-6.12,1.18-9.16c0.51-1.03,2.22-1.27,2.43-2.45c0.02-0.51-0.16-1.26,0.28-1.64
		c4.75-1.87,12.05-0.82,11.72-4.84c-0.07-0.82-4.56-3-4.87-3.84c-2.34-2.5-3.96-5.6-4.69-8.9c-0.31-1.79,1.63-4.46,0.27-5.81
		c-0.84-0.69-2.13-0.23-3.1-0.76c-1.01-1.73,1.73-2.27-0.29-5.05c-2.57-1.14-0.67-2.29-1.51-4.15c-0.31-1.03-1.12-1.56-2.06-1.9
		c-0.36-0.34-0.99-1.28-0.06-1.39c0.02,0.03,0.03,0.06,0.05,0.09c-0.1-1.56-0.58-2.61-0.66-4.18c-0.13,0.28-0.15-0.63-0.27-0.73
		c-0.33-0.28-0.42-0.9-0.34-1.37c0.09,0.05,0.17,0.13,0.24,0.22c-0.1-0.84-0.21-1.62-0.32-2.39l-0.46,0.06
		c-4.88,1.99-6.33,2.01-11.33,0.87c-2.73,1.55-1.29,5.54-0.79,8.04c-1.6,4.13-1.6,9.25-2.77,13.94
		c-4.24,6.72-13.86,1.09-16.85,10.48c-8.58,3.63-1.41-11.99-8.43-12.04c-3.85,0.65-6.94,6.09-11.05,3.48
		c-2.15-0.15-2.28,2.87-3.27,4.28c-1.27,1.84-4.47,1.04-5.39,3.33c-0.96,6.91-6.1,7.95-8.44,14.09c-8.2-1.75-5.54,7.36-0.25,9.89
		c0.23-0.05,0.47-0.1,0.72-0.13c-0.01,1.72,2.73,2.38,4.02,3.1c1.84,1.18,0.18,4.81,3.32,4.93c6.52-0.08,7.46,5.46,9.71,8.9
		c-0.77,4.51,5.32,0.93,7.57,2.06c4.04,5.31,9.03,4.22,12.47,8.98c0.28-1.17,1.1-2.12,2.84-2.63c0.6-0.46,0.55-1.25,0.01-1.75
		c-0.61-1.84-8.57-4.23-9.89-6.06c-1.67-1-3.36-2.56-2.9-4.67c0.02-1.53,5.34-12.46,6.64-8.77c0.27,3.27-1.53,7.44,0.85,10.15
		c3.42,3.42,7.31,6.25,11.78,8.03c0.8,0.48,0.64,1.47,0.99,2.2c1.2,0.64,3.04,0.6,3.27,2.41c-0.1,0.73,0.37,1.51-0.05,2.16
		c-0.25,0.47-0.75,0.78-0.89,1.31c-0.84,3.35-0.59,6.79-0.18,10.2c0.15,0.65-0.05,1.38,0.62,1.79c1.53,1.19,3.13,2.61,4.32,4.17
		c4.94,8.37-0.47,16.6,7.83,23.17c2.72,3.07,3.26,8.56,5.05,12.76c1.25,3.17-0.33,6.51,0.54,9.82c-0.16,2.54-4.28,3.94-3.88,6.3
		c4.6,1.01,8.85,1.49,9.45,7.35c0.79,3.92,0.57,8.62,4.42,11.02c3.57,3.61,7.54,6.87,11.33,10.26c6.68,3.22,6.66,2.73,11.77,8.49
		c8.18,1.12,13.96,8.09,21.67,10.68c7.51-0.32,12.93,4.63,18.4,8.9c1.55,1.12,3.95,0.55,5.46,1.89
		C1138.94,340.51,1146.97,343.09,1140.2,334.05z"/>
	<path   d="M967.47,319.94c0.41-15.04-16.24-28.7-26.47-15.8l-0.07,0.22c-0.32,3.21,5.54,9.43-0.39,10.65
		c-2.1-0.62-4.21-2.51-6.49-1.58c-1.92,14.42-9.42,4.03-18.07,9.11c6.36,9.34,1.1,19.76,0.34,29.35c5.84,2.07,7.12,7.85,11.81,11.48
		c2.94,2.93-0.11,5.95,0.61,9.32c2.41,10.04-10.61,8.68-10.02,17.56c-2.71,3.09-7.38,3.72-10.11,7.2c-1.91,0.97-7.16,0.38-5.86,3.82
		c5.11,1.34,1.57,4.48,1.36,7.88c2.04,2.17,1.1,3.84,1.88,6.26c2.67,2.03-1.84,5.17,3.11,6.11c2,1.82,0.6,5.16,1.37,7.19
		c2.09,0.66,2.77,2.01,2.18,4.26c-4.18,8.19,11.84-4.59,4.23,13.73c4.45,3.25,4.68,6.18,5.65,7.02c0.89,0.77,2.41-0.24,8.43-4.42
		c14.53-3.13-3.58,13.98,1.07,19.37c1.38,4.08-7.03,7.19-1.92,11.41c3.14,3.67,7.09-0.18,10.48,0.77c3.16,0.88,2.85,8,7.11,6.02
		c5.44-4.11,11.83-7.68,10.47-15.36c4.68-2.8,13.15-13.63,12.76-2.04c11.84,12.91-5.34,5.3-7.31,13.96
		c8.2,4.57,0.95,13.14-1.71,19.19c-5.03,2.2-4.54,3.17-0.75,5.95c-5.16,13.37,0.81,13.98,11.88,16.23c1.85,3.62,2.33,8.03,6.33,9.11
		c0.57,0.15,1.21,0.24,1.94,0.24c5.02,2.9,8.04-7.33,13.45-6.95c2.58,3.71,6.75,4.01,10.91,2.52c3.26-2.25,18.79-16.02,12.41-5.99
		c0.42,0.69-0.66,5.84-0.72,6.48c-0.97,3.43,3.64,4.57,5.04,7.1c0.9,1.77-0.23,3.41-1.18,4.84c-0.24,1.07-1.52,1.99-1.11,3.09
		c1.2,2,3.18,3.4,4.9,4.96c0.01,0.01,0.02,0.01,0.04,0.03c-0.02-0.02-0.03-0.02-0.04-0.03c-0.03-0.02-0.06-0.01-0.07,0.02
		c0.47,0.67,0.46,1.61,0.41,2.4c-1.07,2.08,0.05,3.45,1.47,4.76l0.14-0.15c-0.71-2.78,1.62-3.64,2.78-5.62
		c-0.87-4.58-4.21-9.25,0.21-13.5c1.9-1.25,2.01,2.25,3.36,2.75c5.12-1.33,9.46-5.82,13.15-9.42c2.03-3.06-5.34-4.16-0.6-7.19
		c3.19-1.29,5.8-9.46,1.52-8.71c-3.56,4.49-8.01-0.23-8.42-4.41c15.51-24.52,9.48,10.59,23.46-2.62c-0.37-0.68-0.92-1.22-1.47-1.78
		c-1.36-1.6-1.05-3.91-1.53-5.85c0.19-14.9-1.86-15.56-11.51-26.41c-1.02-1.45-0.96-3.32-1.25-4.98c-0.49-0.41-1.17-0.49-1.6-1.01
		c-4.64-3.75-8.83-9.77-8.99-15.87c-0.51-1.27-2.42-0.47-3.31-1.49c-1.58-2.93-0.29-6.82,0.42-9.91l-1.9-0.22
		c-1.71,0-3.41-2.46-4.84-3.18c-5.15-1.09-5.92-7.23-9.54-10.06c-6.01,0.25-11.63-1.8-17.56-2.42c-0.78-0.13-1.41-0.02-1.7,0.79
		c-0.95,0.8-2.19,1.21-3.11,2.12c-0.01,0.01-0.03,0.03-0.04,0.04c0.01-0.01,0.03-0.03,0.04-0.04c0-0.03-0.2,0.09-0.18,0.08
		c-11.04,4.93,1.31,4.08,0.24,10.71c-0.39,1.61-1.06-1.44-3.51,1.44c-0.59,2.26-0.03,5.16-2.25,6.73c-0.25,0.47-1.43,0.75-1.61,0.2
		c-0.37-1.96,1.07-3.97,0.25-5.9c-0.21-1.11-1.9-0.68-2.63-0.31c-0.59,0.67-2.04,1-2.08-0.25c0.48-1.34,1.79-4.09-0.76-3.94
		c-0.86-0.07-1.41,0.63-1.89,1.23c-4.76,3.79,2.27,4.8,1.07,8.74c-0.12,1.3-2.07,1.5-3.07,1.11c-3.11-0.7-4.18-4.78-3.55-7.55
		c-0.7-6.46-6.44,2.07-8.31,3.58c-2.19,0.97-6.04,2.81-7.93,0.64c-0.53-2.18,0.44-4.88,1.74-6.65c0.77-1.95,3.3-3.8,2.89-5.95
		c-0.21-0.75-1.07-1.01-1.6-1.47c-1.9-2.02,0.26-4.07,0.97-6.07c0.2-0.67-0.33-1.02-0.64-1.49c0.07-2.04,1.42-3.92,1.78-5.95
		c0.65-5.87-0.57-11.8-0.89-17.65c-1.42-7.4,3.76-17.17,0.54-22.77c-3.65-5.1,0.71-8.4,0.81-13.09c-2.99-5.97-3.73-5.04-1.61-11.99
		c2.09-8.49,8.67-14.57,14.18-20.93c2.37-1.66,3.15,2.53,5.25,2.52c2.83-3.59-5.2-3.54,2.63-9.78l0.4-0.25
		C980.82,315.39,974.18,316.46,967.47,319.94z"/>
	<path   d="M1036.49,444.29c2.22,3.51,6.78-1.9,8.91,2.13c3.5,8.66,10.75,12.73,16.82,19.17
		c5.05,6.06,9.04,13.17,16.36,16.75c-0.01-0.01-0.02-0.02-0.03-0.03c0.07-0.05,0.13-0.02,0.18,0.1c-0.05-0.02-0.1-0.05-0.15-0.07
		c2.65,2.12,3.45,5.84,5.86,8.23c2.14,1.61,5.21,2.38,6.01,5.3c0.36,1.35,0.51,2.71,0.8,4.08c0.23,1.11,0.66,2,1.28,2.93
		c0.25,0.38,0.44,0.73,0.8,1.01c1.26,0.97,2.65,1.81,3.97,2.7c-0.4-0.14,0.2,0.28,0.3,0.35c0.53,0.42,1.03,0.84,1.59,1.23
		c0.61,0.42,1.33,0.94,2.09,0.9c0.28-0.02,0.68-0.16,0.88-0.39c0.25-0.28,0.25-1,0.19-1.28c-0.1-0.46,0.05-0.94-0.19-1.38
		c-0.2-0.36-0.55-0.63-0.77-0.98c-1.52-2.31-2.35-5.02-4.19-7.14c-0.84-0.92-0.2-2.28-0.37-3.43c0.21-0.83,2.11,0.17,2.81,0.05
		c2.05,0.27,2.01-3.21,4.25-2.52c2.85-0.13,5.87,5.66,6.13,3.75c0.01-3.79-2.92-7.23-4.36-10.7c-2.7-4.14-3.71,1.62-5.38,3.03
		c-3.48-1.17-4.81-5.29-9.32-4.51c-5.2-1.03-8.96-6.98-11.73-11.46c-1.16-2.41-1.16-5.21-3.06-7.24
		c-5.58-14.41,15.28-5.04,13.75-9.28c-0.67-2.82-3.72-2.42-5.92-2.12c-1.79,0.33-2.71-1.6-4.2-2.1c-1.56-0.82-3.46-0.58-4.9-1.72
		c-6.2-5.8-12.92-10.76-20.39-14.68c-3.09-1.85-7.24-6.95-10-2.18c-3.32,1.35-0.96-2.91-1.91-4.24c-2.54-0.54-3.61-0.77-3.71-3.87
		c2.56-0.97,1.12-3.96-0.77-4.91c-1.21-1.19-10.46,0.46-7.36-2.69c2.27-0.28,1.67-1.82,0.04-2.63c-1.5-0.63-3.3-0.38-4.74-1.32
		c-1.87-1.75-4.44-2.31-6.2-4.12c-0.96-1.07-2.16-5.64-3.92-3.81c-1.32,1.61-3.16,3.67-3.09,5.87c1.24,1.68,4.16,1.26,5.76,2.62
		c1.61,1.21,4.83,2.95,4.49,5.14c-0.87,1.59-4.96,1.05-3.79,3.63c1.22,5.43,2.17,2.48,5,6c1.49,3.23,8.43,9.36,8.01,12.19
		c-0.35,0.24-0.69,0.34-1.04,0.34l1.9,0.22C1034.61,441.66,1035.56,443.14,1036.49,444.29z"/>
	<path   d="M1038.96,511.13c0.41,4.18,4.86,8.9,8.42,4.41c4.28-0.75,1.67,7.42-1.52,8.71c-4.74,3.03,2.63,4.13,0.6,7.19
		c-3.69,3.6-8.03,8.09-13.15,9.42c-1.35-0.5-1.46-4-3.36-2.75c-4.42,4.25-1.08,8.92-0.21,13.5c-1.16,1.98-3.49,2.84-2.78,5.62
		l-0.14,0.15c0.96,0.88,2.06,1.73,2.69,2.75c0.25,0.52,0.63,1.13,0.48,1.71c-0.6,2.61-1.12,5.33-0.71,7.95
		c0.69,1.99,2.74,3.31,3.11,5.45c0.14,1.67,1.03,4.14-0.2,5.48c-1.36,1.97-4.06,1.09-6.08,1.46c-1.93,0.48-4.5,0.3-5.99,1.63
		c-0.69,1.64,0.29,3.46,0.2,5.19c-0.19,2.92-5.12,3.88-3.45,6.89c2.69,2.77,5.81,5.64,7.85,9.18c3.08,3.12,4.61,7.17,6.77,10.83
		c4.65,12.8-4.87,3.39-4.79,10.7c1.06,4.65,7.61,2.81,10.78,1.48c3.59-4.62-1.26-10.97,1.05-16.04c0.75-0.81,2.19-0.81,2.98-1.59
		c0.35-0.31,0.56-0.9,1.05-1c1.55,1.34,1.11,5.22,4.2,4.21c0.62-0.1,1.06-0.54,1.19-1.16c1.28-2.22,4.45-0.91,6.55-1.73
		c-0.06,0.01-0.11,0-0.14-0.04c2.29-6.56,11.23-10.4,10.86-18.02c0.59-1.8,0.39-3.74,0.59-5.63c0.43-1.8,1.6-3.45,1.55-5.36
		c0.49-3.06-2.28-5.5-2.14-8.52c0.26-3.78,4.8-4.44,1.53-8.82c-1.57-1.46-0.71-3.73,0.05-5.61c0.72-4.52-0.17-9.17-0.03-13.7
		c-0.01-6.42,0.24-13.03-1.23-19.33c-0.41-0.95-1.41-1.43-1.95-2.27c-0.54-1.22-0.09-2.56-0.78-3.74c-0.28-3.46,0.13-7.11-0.12-10.6
		c-0.07-0.22-0.16-0.43-0.27-0.62C1048.44,521.72,1054.47,486.61,1038.96,511.13z"/>
	<path   d="M1005.67,529.72c-4.16,1.49-8.33,1.19-10.91-2.52c-5.41-0.38-8.43,9.85-13.45,6.95
		c-0.73,0-1.37-0.09-1.94-0.24l-0.02,0.06c-3.28,4.49,3.53,8.2-2.66,13.89l-1.92,0.07c0.84,0,1.69,0.13,2.52,0.52
		c4.03,1.59,5.9,6.78,8.7,9.95c2.62,1.13,5.68,0.59,8.48,0.59c1.43-2.14,3.55-4.89,5.9-6.72c2.36-2.43,4.25-2.97,2.59-6.62
		c1.06-2.14,3.88-3.27,4.86-5.62c0.54-2.61,1.85-4.83,3.46-6.98c2.19-3.12,3.88-6.61,6.56-9.34c0.11-0.09,0.19-0.08,0.24,0.02
		C1024.46,513.7,1008.93,527.47,1005.67,529.72z"/>
	<path   d="M979.35,533.97l0.02-0.06c-4-1.08-4.48-5.49-6.33-9.11c-11.07-2.25-17.04-2.86-11.88-16.23
		c-3.79-2.78-4.28-3.75,0.75-5.95c2.66-6.05,9.91-14.62,1.71-19.19c1.97-8.66,19.15-1.05,7.31-13.96
		c0.39-11.59-8.08-0.76-12.76,2.04c1.36,7.68-5.03,11.25-10.47,15.36c-4.26,1.98-3.95-5.14-7.11-6.02
		c-3.39-0.95-7.34,2.9-10.48-0.77c-5.11-4.22,3.3-7.33,1.92-11.41c-4.65-5.39,13.46-22.5-1.07-19.37c-6.02,4.18-7.54,5.19-8.43,4.42
		l-0.28,0.25c-1.5,1.64-3.48,3.19-6.2,3.42c-0.96,2.78-2.38,4.75-5.56,4.86c-2.1,1.54,0.65,5.59-2.03,7.4
		c-2.88,3.22-8.32-1.27-11.57,1.84c-2.39,2.25-2.62,5.63-6.49,5.73c-2.71,0.79-3.36,5.12-6.76,4.12c-4.64-4.78-7.97,1.4-13.65,1.13
		c-3.08-2.19-5.24-0.48-8.25-1.4c-3.31-2.98-6.34,0.83-9.55,1.16c-3.63-0.95-4.39-4.14-8.79-2.73c-4.57-4.59-9.39,2.5-14.48,4.04
		c0.42,1.13-0.43,3.07,0.03,4.74c3.3,1.13,6.65,0.74,6.78,5.52c2.57,4.29,4.96-4.02,7.77-2.51c6.65,3.03,14.93,4.94,13.53,15.62
		c12.97,0.17,1.83,11.11,8.78,14.32c1.32,1.65,2.65,3.3,3.99,4.93l0.14,0.02c0.01-0.06,0.02-0.12,0.03-0.19
		c8.87,0.71,5.87-4.35,12.88-6.55c-0.07,0.03-0.1,0.08-0.09,0.15c2.29,0.29,4.63,0.35,6.91,1.01c7.24,0.63,1.39-5.1,14.82-2.24
		c4.66,3.25,9.27,7.52,14.66,10.2c4.37,3.5,8.55,7.16,13.02,10.51c5.48,6.64,6.5,10.49,15.64,12.6c3.2,0.99,4.43-0.5,6.8-2.54
		c3.38-1.51,2.96,1.76,7.51-2.29c1.69-1.21,3.58,0.32,4.82,1.45c2.57,0.92,5.22-0.36,7.83-0.36l1.92-0.07
		C982.88,542.17,976.07,538.46,979.35,533.97z"/>
	<path   d="M865.81,521.23c-6.95-3.21,4.19-14.15-8.78-14.32c1.4-10.68-6.88-12.59-13.53-15.62
		c-2.81-1.51-5.2,6.8-7.77,2.51c-0.13-4.78-3.48-4.39-6.78-5.52c-0.46-1.67,0.39-3.61-0.03-4.74c-0.05,0.01-0.1,0.03-0.15,0.04
		c0.05-0.01,0.1-0.03,0.15-0.04c-0.25-0.68-0.95-1.07-2.66-0.94c-3.31-1.15-3.57-7.02-7.27-5.72c-4.94,0.03-3.04-6.72-6.79-7.73
		c-0.1-0.02-0.2-0.05-0.3-0.06c-0.97-0.18-2.29,0-4.12,0.7c-5.54-1.62-6.96,5.24-7.56,10.12c-0.22,5.19,10.77,8.03,6.29,13.75
		c-1.96,1.73-5.95,2.49-8.39,3.91c-2.03,1.18-3,2.82-0.88,5.85c-0.25,3.42,2.67,4.47,4.4,6.76c2.36,3.31,1.85,8.45,5.55,9.67
		c9.24-3.01,14.57,10.52,6,15.28c-4.77,5.7-8.88,12.59-12.93,18.81c5.19,6.25,11.09,10.56,0.73,17.6
		c-8.58,5.53-15,12.49-21.72,19.99c-2.63,1.18-24.45,8.72-18.68,11.67c4.1,6.94-8.34,8.46,4.32,12.05
		c-3.71,3.44-7.89,6.36-7.19,12.45c0.67,0.17,1.43,0.45,2.29,0.91c6.7,5.5,8.85,5.83,16.74,2.28c7.56,1.66,8.93-4.56,15.42-2.14
		c2.76,0.18,6.17-5.18,8.84-6.65c2.46-1.67,6.04-0.71,8.4-2.74c1.85-1.14,0.95-3.32,0.84-5.05c0.76-3.37,9.04-11.26,12.19-13.33
		c0.42,0.22,1.76,0.44,2.52,0.53c2.59,0.95,5.15,3.3,8.11,2.6c2.42-1.14,3.98-3.65,6.34-5.01c5.98-2.71,12.3,3.39,18.14,4.83
		c-0.06-0.01-0.09-0.05-0.08-0.09c1.63,0.51,3.33-0.95,3.62-2.52c0.54-1.72-0.45-3.83,0.35-5.42c9.92-9.72,11.71-5.71,3.79-15.23
		c-0.59-7.98-1.58-16.72,1.49-24.31c1.5-2.81-0.58-4.67-1.42-7.37c-0.36-2.32-1.48-4.29-4.03-4.49c-2.13,0.02-6.8-1.28-4.28-3.98
		c3.54-3.15,6.76-6.69,10.29-9.87c1.48-1.2,2.41-2.61,2.66-4.47l-0.14-0.02C868.46,524.53,867.13,522.88,865.81,521.23z"/>
	<path   d="M764.91,615.25c-12.66-3.59-0.22-5.11-4.32-12.05c-5.77-2.95,16.05-10.49,18.68-11.67
		c6.72-7.5,13.14-14.46,21.72-19.99c10.36-7.04,4.46-11.35-0.73-17.6c4.05-6.22,8.16-13.11,12.93-18.81
		c8.57-4.76,3.24-18.29-6-15.28c-3.7-1.22-3.19-6.36-5.55-9.67c-1.73-2.29-4.65-3.34-4.4-6.76c-2.12-3.03-1.15-4.67,0.88-5.85
		l-0.03-0.05c1.89-14.55-7.11-3.64-10.55,1.31c4.22,3.67-3.18,11.03-7.45,10.59c-3.99,0.59-8.15,0.8-10.84-2.67
		c-2.09,2.14-3.85,1.46-6.63,2.04c-2.81,4.74-5.77,5.22-10.98,4.62c-3.67,5.13-18.93,11.05-6,15.24
		c-3.5,16.26,8.85,17.71,4.99,35.26c-5.23,17.08-17.71,32.18-28.37,46.49c-5.33,8.52-7.56-3.14-12.1,2.49
		c-2.62-2.99-0.48-10.64-7.3-9.2c-1.72-4.04-4.56-4.79-9-3.01c-2.9-5.76-9.58-5.39-12.42-11.82c-5.58-9.95-6.84-0.23-10.61,3.87
		c-1.05,0.24-1.92,0.69-2.63,1.3c0.01,0.02,0.01,0.05,0.02,0.07c-0.01-0.02-0.01-0.05-0.02-0.07c-3.48,2.97-3,9.67-1.27,13.92
		c2.26-0.84,5.1,2.43,7.56,2.59c2.54-0.29,4.2,0.11,6.16,1.74c6.08,1.71,12.94,0.51,18.7,3.42c2.73,1.34,0.43,4.51,0.92,6.66
		c3.03,2.74,5.18,7.21,8.83,8.97c2.43-0.09,4.52,0.87,6.63,1.96c5.03-0.55,9.32-6.02,14.2-8.11c2.24-1.23,4.92-0.82,7.36-1.23
		c2.43-0.56,4.95-1.12,7.48-0.53c2.58,0.08,3.72,2.57,5.22,4.29c2.96,1.18,4.4-0.84,7.73-0.01
		C757.02,621.61,761.2,618.69,764.91,615.25z"/>
	<path   d="M800.61,452.9c-2.58-3.63-4.69,4.25-7.44,3.29c-5.74-2.39-6.22-10.13-12.67-11.44
		c-10.06-0.39-10.11,9.77-11.49,16.51c-6.59,3.75-2.45,16.16-8.94,18c-1.4-3.17-2.39-4.9-6.39-4.92c0.11,3.99-4.7,3.27-7.51,3.52
		c-3.02,3.69-5.66,8.08-10.17,4.45c-3.27-4.81,0.98-11.13-5-14.86c-0.26-6.08,8.68-14.14,1.4-19.41c-7.11-0.88-5.67-7.2-6.82-12.46
		c-6.49-4.74-4.41-18.35-13.04-18.48c-10.4-0.25,1.87-8.83-4.29-7.72c-1.63,0.3-4.55,1.27-9.51,3.26
		c-5.77,3.77,2.32,6.16,1.61,10.36c-3.48,5.02-2.11,5.32,1.55,9.6c2.78,9.43-2.15,19.29-8.52,25.19
		c-2.85,13.51,4.88,8.92,9.78,16.14c-6.1,8.68,0.69,5.81,2.32,12.36c-0.13,2.28-1.3,4.03-3.16,5.27c-0.87,2.13,0.81,5.72-1.7,7.09
		c-4.23,0.07-9.58-1.95-11.4-5.78c-7.92-6.2-3.84,9.2-9.46,10.67c-10.15,13.3-3.67,6.65-6.4,19.21c-4.89,2.28-5.56-6.51-8.46-9.24
		c-4.67-2.93-2.2,10.12-10.96,6.36c-6.23-2.82-6.97,4.46-9.49,9.44c-1.28,2.84,3.91,5,4.15,8.36c1.86,4.32-1.97,8.3-4.26,11.99
		c-1.09,3-0.25,5.73-2.44,8.1c0.28,3.47-0.84,6.54-0.79,10.21c-1.75,4.44-10.68,5.9-5.16,11.61c3.74,0.64,3.38,7.2,6.4,7.14
		c0.22,0,0.46-0.04,0.71-0.12c1.37-2.01,3.59-2.58,5.76-1.59c3.44,3.47,7.42,4.34,10.93,6.66c3.21,0.46,7.38-2.43,8.45,2.36
		c0.71-0.61,1.58-1.06,2.63-1.3c3.77-4.1,5.03-13.82,10.61-3.87c2.84,6.43,9.52,6.06,12.42,11.82c4.44-1.78,7.28-1.03,9,3.01
		c6.82-1.44,4.68,6.21,7.3,9.2c4.54-5.63,6.77,6.03,12.1-2.49c10.66-14.31,23.14-29.41,28.37-46.49c3.86-17.55-8.49-19-4.99-35.26
		c-12.93-4.19,2.33-10.11,6-15.24c5.21,0.6,8.17,0.12,10.98-4.62c2.78-0.58,4.54,0.1,6.63-2.04c2.69,3.47,6.85,3.26,10.84,2.67
		c4.27,0.44,11.67-6.92,7.45-10.59c3.44-4.95,12.44-15.86,10.55-1.31l0.03,0.05c2.44-1.42,6.43-2.18,8.39-3.91
		c4.48-5.72-6.51-8.56-6.29-13.75c0.6-4.88,2.02-11.74,7.56-10.12c1.83-0.7,3.15-0.88,4.12-0.7l0.2-0.99
		C809.65,462.23,802.91,459.17,800.61,452.9z"/>
	<path   d="M668.2,594.03c-1.07-4.79-5.24-1.9-8.45-2.36c-3.51-2.32-7.49-3.19-10.93-6.66c-2.17-0.99-4.39-0.42-5.76,1.59
		c-0.25,0.08-0.49,0.12-0.71,0.12l0.03,0.41c-3.22,7.14-12.17-1.34-18.02,2.95c0.53,9.02-2.09,8.97-8.34,13.54
		c-1.6,6.13-8.81,6.13-11.39,11.38c-2.63,3.08-7.32-0.27-10.64-0.59c-8.19-1.5-11.16-1.86-10.69-3.52l-0.47-0.15
		c-4.49,2.21-3.99,2.85-5.8,7.55c-3.48,4.63-6.02,1.94-9.67,1.61c-5.79,9.21,17.64,19.96,6.44,21.29c-3.77,0.44,2.02,3.14,2.32,4.78
		l0.06,0.24c0.14-0.13,0.27-0.26,0.38-0.39c0.75,0.18,1.83-0.31,2.72-0.29c1.79-0.29,3.74,0.14,5.23-1.04
		c4.84-3.25,15.04-12.53,20.93-9.87c0.95,2.55-2.13,5.19,2.42,5.04c16.82-9.29,11.41,0.18,22.66,6.39c1.81,0.26,4.27-0.74,6.34-0.32
		c5.34,0.85,10.5,3.8,15.98,3.07c4.98-1.76,7.44-7.63,11.35-11c0.72-0.69-0.21-1.27-0.41-2.04c-0.52-3.45-5.55-3.74-5.01-7.43
		c0.57-3.01-0.68-6.64,0.82-9.37c1.56-1.84,3.85-3.21,4.66-5.54c-0.04-0.67,0.2-1.27,0.66-1.76c0.24-0.85,0.21-1.78,0.69-2.57
		c0.41-0.6,0.86-0.96,1.33-1.14C665.2,603.7,664.72,597,668.2,594.03z"/>
	<path   d="M573.8,641.19c11.2-1.33-12.23-12.08-6.44-21.29c-0.64-0.07-1.32-0.05-2.04,0.09
		c-1.97,10.3-5.38,0.15-8.07-3.37c0.9-2.7,3.64-4.48,6.11-6.38c-1.18-3.4-2.45-3.56-5.51-4.08c-1.42-1.97-3.59,2.12-5.09,0
		c-0.09-2.21-0.84-3.13-1.81-3.25c-1.73-0.23-4.22,2.07-5.18,4.11c-3.45,8.18-5.32,1.31-9.85,9.47c-2.5,4.05-7.29,0.19-9.72,3.79
		c-1.23,3.12-6.15-0.9-7.37,1.88c1.66,5.21,8.23,6.99-0.31,9.68c0.21,0.52,0.36,1.06,0.44,1.62c0.35,1.82,0.1,3.74,0.18,5.59
		c0.38,0.65,1.53,0.41,2.21,0.48c2.69,0.2,5.87,0.86,6.1,4.12c0.68,2.41,0.88,4.86,1.74,7.19c0.48,1.75,1.4,2.22,3.17,2.05
		c4.37,1.07,8.32-3.45,12.42-1.26c2.51,1.35,4.18,4.81,6.81,6.41c3.35,2.13,7.69,1.51,10.27-1.43c3.1-2.55,7.93-1.01,10.55-4.05
		c0.7-0.54,1.28-1.23,2.13-1.56c0.71-0.61,1.11-1.95,1.06-2.9c-0.56-0.78,0.03-1.34,0.58-1.89l-0.06-0.24
		C575.82,644.33,570.03,641.63,573.8,641.19z"/>
	<path   d="M592.15,598.26c1.13-2.52,4.32-3.58,4.75-6.39c-6.44-8.11-2.89-6.6-3.67-15.3
		c-5.18-3.68-4.63-15.61-12.03-13.91c-5.35,4.42-10.25,4.85-14.16-0.71l-0.21,0.15c-2.39,3.69,2.38,4.03,1.69,7.29
		c-1.01,1.42-2.06,2.17-0.92,3.74c-1.45,1.1-2.34,2.88-1.34,4.64c1.79,1.03,8.04-1.08,5.22,2.81c-2.94,1.48-0.51,5.81-4.65,5.77
		c-1.51-0.28-1.74,6.27,0.03,5.78c3.14,1.24-0.4,3.08-1.13,4.61c1.46,3.3,4.08,4.75,1.68,8.98c-0.75,1.8-2.33,3.19-4.05,4.52
		c0.04,0.12,0.08,0.24,0.12,0.37c-0.04-0.13-0.08-0.25-0.12-0.37c-2.47,1.9-5.21,3.68-6.11,6.38c2.69,3.52,6.1,13.67,8.07,3.37
		c0.72-0.14,1.4-0.16,2.04-0.09c0.07-0.13,0.16-0.25,0.25-0.38c-0.09,0.13-0.18,0.25-0.25,0.38c3.65,0.33,6.19,3.02,9.67-1.61
		c1.81-4.7,1.31-5.34,5.8-7.55l0.47,0.15c0.35-1.23,2.61-3.17,6.03-6.83C590.45,602.04,594.03,601.33,592.15,598.26z"/>
	<path   d="M518.83,622.16c1.22-2.78,6.14,1.24,7.37-1.88c2.43-3.6,7.22,0.26,9.72-3.79c4.53-8.16,6.4-1.29,9.85-9.47
		c0.96-2.04,3.45-4.34,5.18-4.11l0.01-0.04c1.72-3.38-1.47-6.1-1.42-8.35c3.37-0.98,2.79-4.37-0.55-4.43
		c-5.33,0.54,0.92-4.48-7.38-6.57c-2.49-1.07-0.56-3.12-0.9-4.9c-1.89-1.37-3.91-1.93-4.56-4.56c-0.91-1.4-1.76-1.87-2.6-1.76
		c-2.47,0.28-4.78,5.45-8.01,5.61c-7.79-3.09-14.17,1.89-17.29,9.6c-4.73-0.06-0.93-9.27-4.81-10.8c-2.46-1.68-5-0.38-5.34-4.22
		c-2.16-2.78-9.45,3.99-13.43,4.29c-3.4-0.7-5.29,1.75-8.48,0.91c-1.98-0.15-2.7,3.59-4.61,2.12c-4.23-5.45-6.48-1.46-5.78,3.71
		l-0.21,0.12c3.93,6.86,6.56,14.83,8.37,22.61c1.2,5.29,2.63,11.5,2.93,17.27c0.4,1.41-0.1,3.28,0.88,4.42
		c1.7,0.74,4.73-1.52,6.1-2.51c1.54-1.8-0.78-4.21-0.08-6.07c0.44-1.53,2.47-1.49,3.54-0.57c2.08,3,3.58,6.28,5.74,9.14
		c0.36,0.51,0.84,1.85,1.63,2.17c0.29,0.01,0.66,0.03,0.9,0.18c2.52-0.66,7,1.1,8.7-0.95c3.56-5.41,12.07-2.79,14.22,2.51
		C527.06,629.15,520.49,627.37,518.83,622.16z"/>
	<path   d="M567.41,605.72c2.4-4.23-0.22-5.68-1.68-8.98c0.73-1.53,4.27-3.37,1.13-4.61c-1.77,0.49-1.54-6.06-0.03-5.78
		c4.14,0.04,1.71-4.29,4.65-5.77c2.82-3.89-3.43-1.78-5.22-2.81c-1-1.76-0.11-3.54,1.34-4.64c-1.14-1.57-0.09-2.32,0.92-3.74
		c0.69-3.26-4.08-3.6-1.69-7.29l0.21-0.15c-0.19-0.25-0.37-0.52-0.54-0.8c1.99-3.58,6.05-5.97,8.1-9.54
		c-0.12-4.79-8.78-3.62-9.1-9.69c-3.95,1.78-6.71-2.58-10.45-0.21c-4.02,2.03-3.63-2.17-10.15,1.15c-6.06,0.84-5.41,7.48-12.67,5.29
		c-0.39,0.53-0.54,1.03-0.54,1.49c0.02,0.02,0.04,0.05,0.05,0.07c-0.01-0.02-0.03-0.05-0.05-0.07c0.04,2.1,3.35,3.63,3.29,5.55
		c-3.14,6.51-2.02,9.87-1.44,16.97l0.01,0.14c0.84-0.11,1.69,0.36,2.6,1.76c0.65,2.63,2.67,3.19,4.56,4.56
		c0.34,1.78-1.59,3.83,0.9,4.9c8.3,2.09,2.05,7.11,7.38,6.57c3.34,0.06,3.92,3.45,0.55,4.43c-0.05,2.25,3.14,4.97,1.42,8.35
		l-0.01,0.04c0.97,0.12,1.72,1.04,1.81,3.25c1.5,2.12,3.67-1.97,5.09,0c3.06,0.52,4.33,0.68,5.51,4.08
		C565.08,608.91,566.66,607.52,567.41,605.72z"/>
	<path   d="M450.35,551.74c-5.6-3.12-0.99-11.28,1.22-15.43c3.8-3.05,9.44,1.63,10.74-1.37
		c-5.49-12.63,2.3-3.68,0.93-15.38c-0.05-0.02-0.1-0.03-0.15-0.04c0.05,0.01,0.1,0.02,0.15,0.04c0-0.02-0.01-0.05-0.01-0.07
		c-1.65-2.51-4.11-3.52-2.19-6.81c-2.46-2.16-0.97-4.32,0.11-6.68c-2.1-5.91-0.97-6.65,1.02-12.35v-0.01
		c-0.16-0.01-0.33-0.03-0.5-0.06l-0.25,0.06c0.07,0.05,0.14,0.12,0.19,0.2l-0.2,0.19c-2.83,1.06-4.25,4.53-7.98,2.89
		c-2.53,0.41-5.04,3.13-7.56,1.03c-1.58-4.29-2.05,2.84-4.76,1.28c-0.17-1.27-1.88-1.83-2.73-0.84c-3.63,3.94-3.82-7.01-7.8-3.04
		c-7.6,5.94,2.34-16.21-8.27-5.47c-4.91,7.25,2.26,15.52,2.92,23.16c-0.04,5.62-4.98,3.65-7.51,6.4c-2.02,2.8-1.13,5.92-4.94,7.26
		c0.64,4.49-3.85,5.93-3.45,10.68c1.03,0.32,1.87,0.88,1.66,1.75c-0.11,0.96-1.29,1.56-0.93,2.72c0.39,1.68,2.97,2.47,2.48,4.38
		c-0.67,1.94-5.69,8.75-4.16,10.06c2.14,1.18,4.67,0.7,7.01,0.75c0.89-0.67,1.51-1.72,2.34-2.48c-0.02,0.02,0.33-0.27,0.67-0.14
		c1.42,0.23,1.29,1.99,1.4,3.1c-0.26,1.22-1.51,6.4,1.04,3.75c1.06-1.76,3.52-2,3.23,0.55c0.89,0.95,2.9,0.37,4.15,0.65
		c0.65,0.22,1.28,0.16,1.67,0.84c0.95,0.57-1.39,1.43-1.87,1.68c-0.71,0.64-2.6,0.63-2.41,1.81c0.38,12.31,3.2-5.54,7.47,6.19
		c0.3,0.11,0.65,0.23,0.72-0.19c0.24-0.18,0.44-0.23,0.48-0.55c1.59-3.84,3.95-1.64,6.77-0.52c-0.25-0.12,0.17-0.08,0.23-0.08
		c0.39,0.09,0.63-0.25,0.85-0.51c1.21-2.23,3.57-0.03,5.14-1.55c0.55-1.02,1.33-2.44,2.92-2.33
		C447.05,561.66,453.27,556.33,450.35,551.74z"/>
	<path   d="M471.58,579.81c1.91,1.47,2.63-2.27,4.61-2.12c3.19,0.84,5.08-1.61,8.48-0.91c3.98-0.3,11.27-7.07,13.43-4.29
		c0.34,3.84,2.88,2.54,5.34,4.22c3.88,1.53,0.08,10.74,4.81,10.8c3.12-7.71,9.5-12.69,17.29-9.6c3.23-0.16,5.54-5.33,8.01-5.61
		l-0.01-0.14c-0.58-7.1-1.7-10.46,1.44-16.97c0.06-1.92-3.25-3.45-3.29-5.55c-0.72-0.94-4.23-1.79-5.5,0.45
		c-13.29,13.26,5.76-20.62-13.16-8.36c-9.84-1.63-7.18-7.95-18.19-5.43c-5.37-11.11-15.19-13.69-26.36-15.34
		c-0.61,0.04-3.76-1.02-5.24-1.4c1.37,11.7-6.42,2.75-0.93,15.38c-1.3,3-6.94-1.68-10.74,1.37c-2.21,4.15-6.82,12.31-1.22,15.43
		c2.92,4.59-3.3,9.92-0.16,15.52c0.83-0.25,0.96,0.06,1.83-0.14c1.71-0.22,1.45-2.44,3.2-2.63c1.62-0.57,3.43-0.49,5.15-0.59
		c1.81-0.36,2.37-0.1,2.11,1.84c-0.09,3.36-4.54,1.18-6.48,2.69c-2.13,0.85,3.77,6.83,4.64,8.06c1.74,2.25,2.72,4.96,4.83,6.94
		c0.04,0.07,0.08,0.14,0.12,0.21l0.21-0.12C465.1,578.35,467.35,574.36,471.58,579.81z"/>
	<path   d="M544.9,542.86c6.52-3.32,6.13,0.88,10.15-1.15c3.74-2.37,6.5,1.99,10.45,0.21c-0.09-1.36,0.25-3.08,1.2-5.3
		c-3.66-5.74,2.45-7.09,5.43-11.03c-5.54-13.23-18.04-5.91-2.27-24.05c-6.48-4.85-8.15,0.95-10.16-9.21
		c-4.96-3.87-12.41,2.14-17.78-2.52c-4.84-4.46,2.33-11.97-6.38-14.89c0.03-0.3,0.09-0.58,0.16-0.84l-0.87-0.24
		c-7.11-4.16-8.32-1.88-15.09,1.42c-2.43-1.44-3.72-2.67-6.71-1.64c-2.58-3.17-4.75-4.41-8.94-2.74c-3.74-4.01-3.52-0.34-6.32-2.56
		c-0.46-2.62-4.33-0.24-5.8-2.06c-2.09-2.79-3.87-5.17-6.79-1.81c-10.58,8.09-2.48,7.23-7.9,11.81c-2.68,3.02,0.91,10.99-6.69,7.25
		c-5.82,0.52-0.75,10.96-8.42,10.14c-1.99,5.7-3.12,6.44-1.02,12.35c-1.08,2.36-2.57,4.52-0.11,6.68c-1.92,3.29,0.54,4.3,2.19,6.81
		c0,0.02,0.01,0.05,0.01,0.07c1.48,0.38,4.63,1.44,5.24,1.4c11.17,1.65,20.99,4.23,26.36,15.34c11.01-2.52,8.35,3.8,18.19,5.43
		c18.92-12.26-0.13,21.62,13.16,8.36c1.27-2.24,4.78-1.39,5.5-0.45c0-0.46,0.15-0.96,0.54-1.49
		C539.49,550.34,538.84,543.7,544.9,542.86z"/>
	<path   d="M470.59,483.51c7.6,3.74,4.01-4.23,6.69-7.25c5.42-4.58-2.68-3.72,7.9-11.81c2.92-3.36,4.7-0.98,6.79,1.81
		c1.47,1.82,5.34-0.56,5.8,2.06c2.8,2.22,2.58-1.45,6.32,2.56c4.19-1.67,6.36-0.43,8.94,2.74c2.99-1.03,4.28,0.2,6.71,1.64
		c6.77-3.3,7.98-5.58,15.09-1.42l0.87,0.24c2.37-9.39,24.49-1.03,2.55-17.01c-0.85-2.65,0.55-4.55,2.3-6.34l-0.3-0.5
		c-3.21-5.83-10.19,1.04-12.08-5.43c-1.69-7.29-5.43,0.67-11.09-8.98c-3.73-0.58-5.75,4.59-9.57,3.58
		c-6.65-2.27-15.25,3.1-17.02-6.01c-2.14-4.22-10.07,0.93-8.55-7.19c-8.31-1.72-9.12,0.28-16.37-7c-3.56-2.88-10.37,2.58-12.04-2.25
		c-0.07-3.28-1.9-4.87-4.81-6.2c3.18-6.75-0.03-13.23-5.66-17.99c-1.28-0.5-1.1,0.67-1.12,1.52c0.32,4.13-5-0.2-5.75,3.04
		c-2.28,4.45-6.9-4.56-10.53-4.53c1.42-5.63,5.53-9.87-4.64-9.65c-5.45,2.09-18.71-0.55-17.8-7.29c6.5-4.26,7.87-11.09,4.39-18.01
		l-0.03-0.15c-7.22,1.51-11.03,13.56-17.59,9.7c0.87-15.12-4.69,1.11-9.67,3.42c-0.95,3.43,2.56,6.77-1.35,9.74
		c-10.98,3.76-4.26,19.43-14.98,23.48l-0.33,0.14c0.01,0.03,0.03,0.05,0.04,0.07c4.9,8.58,24.69,15.55,15.1,27.08
		c5.9,12.9-5.66,22.33,3.54,25.16c3.88,3.23,5.37,10.63,8.28,15.16c0.01,0.02,0.03,0.05,0.04,0.07c2.54,3.92,6.15,5.67,13.31,0.7
		c5.38-4.56,12.37-1.38,17.59-7.22c3.23-2.64,4.74,1.07,4.05,3.96c4.23-0.59,10.29-2.99,13.64,1.56c1.9,3.14,4.79,6.02,3.37,9.8
		c3.35,1.33,4.47,2.03,2.33,5.82c2.51,3.66,10.95,0.18,12.65,6.07c0.3,2.02,2.86,0.56,3.82,1.24l0.25-0.06
		c0.17,0.03,0.34,0.05,0.5,0.06c0.01-0.02,0.01-0.04,0.02-0.06c-0.01,0.02-0.01,0.04-0.02,0.06v0.01
		C469.84,494.47,464.77,484.03,470.59,483.51z"/>
	<path   d="M442.59,325.87l0.37,0.74c-8.37,8.49,10.71,14.69-5.68,17.67c-0.46,3.47-3.35,2.95-5.94,2.71
		c-1.45,3.48-4.33,4.71-8.06,3.17c-6.14-2.96-8.57,5.28-13.35,7.42c-0.82-0.1-1.61-0.05-2.35,0.11l0.03,0.15
		c3.48,6.92,2.11,13.75-4.39,18.01c-0.91,6.74,12.35,9.38,17.8,7.29c10.17-0.22,6.06,4.02,4.64,9.65c3.63-0.03,8.25,8.98,10.53,4.53
		c0.75-3.24,6.07,1.09,5.75-3.04c0.02-0.85-0.16-2.02,1.12-1.52c5.63,4.76,8.84,11.24,5.66,17.99c2.91,1.33,4.74,2.92,4.81,6.2
		c1.67,4.83,8.48-0.63,12.04,2.25c7.25,7.28,8.06,5.28,16.37,7c-1.52,8.12,6.41,2.97,8.55,7.19c1.77,9.11,10.37,3.74,17.02,6.01
		c3.82,1.01,5.84-4.16,9.57-3.58c5.66,9.65,9.4,1.69,11.09,8.98c1.89,6.47,8.87-0.4,12.08,5.43l0.3,0.5
		c2.12-2.17,4.77-4.17,4.49-7.13c3.03-7.51,5.49-4.69,0.56-12.61c0.05-4.52,6.25-4.73,8.3-7.99c-3.74-3.28,2.73-7.51-1.52-10.07
		c-20.17-0.64,2.03-17.26-14.13-15.31c-5.24-6.46-1.43-14.97-0.09-20.69c-6.07,0.08-4.72-5.48-7.61-9.14
		c-3.76-10.4,9-5.51,6.57-12.97c5.6-4.58,0.6-5.67,0.36-10.98c-2.83-9.87-9.01,5.71-16.56-11.72c-2.94-3.61,3.05-3.53,3.39-6.71
		c2.31-6.02,10.54-5.69,6.78-14.67c-12-16.2,7.66-7.73-3.87-20.71l0.21-0.23c-0.4-0.36-0.6-1.01-0.52-2.19
		c0.18-1.65-1.98-4.49-4.04-3.97c-1.46,0.76-5.95,4.5-4.68,6.15c5.78,0.44,1.66,2.74,5.16,3.95c2.84,3.84-3.1,5.02-3.49,0.52
		c-2.48-5.34-7.5,2.34-6.58,5.73c2.95,4.28,8.93,6.02,12.11,10.21c2.35,6.14-10.3-3.5-11.91-4.16c-2.68-1.73-5.75-3.26-3.45-7.23
		c-0.03-2.58-2-1.43-0.8-5.46c0.33-2,2.46-2.84,3.75-4.19c1.68-2.91,1.19-7.38-0.42-10.22c-2.72-1.08-1.12,5.39-2.08,6.93
		c-1.09,6.03-5.95,3.55-8.77,5.9c-1.41,2.66-4.37,3.82-5.24,6.82c0.02-0.04,0.05-0.06,0.09-0.06c0.65,3.61,1.07,7.26,1.09,10.94
		c1.11,2.51,1.22,5.23-0.49,7.56c-2.75,2.76-5.06,4.77-4.91,8.98c-0.87,2.12-1.37,4.32-0.84,6.59c0.45,1.32-0.24,3.89,1.48,4.28
		c1.1,0,2.18-0.65,3.21,0.03c1.2,0.33,1.95-1.21,3.07-1.42c2.88-1.06,3.77,2.35,5.62,3.6c1.81,0.35,3.05,1.51,4.42,2.66
		c2.45,0.71,1.72,4.1,2.24,6.09c0.58,2.51,0.52,4.97-1.19,7.02c-0.48,0.6-2.17,1.1-2.2,1.98c0.15,1.8-0.15,3.98,0.68,5.58
		c1.48,0.81,3.51,0.18,4.86,1.24c1.72,1.73,8.46,6.63,4.67,8.64c-3.42-0.38-5.43-4.51-7.97-6.57c-1.22-1.39-3.1-0.49-4.62-1.03
		c-1.71-1.33-1.78-4.8-1.94-6.89c1.02-3.1,3.19-1.04,3.74-6.08c-0.62-2.81-1.4-5.71-1.89-8.6c-0.43-2.03-6.9-1.93-8.83-2.19
		c-3.77-0.33-4.58,3.3-5.94,5.81c-0.41,1.29,0.7,2.23,1.14,3.31c0.57,1.59,0.01,3.29,0.01,4.95c-0.99,2.37-3.27,3.76-5.6,5
		c-1.8,2.4-2.62,5.78-5.37,7.41c-1.16,0.74-1.95,2.06-3.29,2.49c-1,0.3-2.18,0.07-3.06,0.7c-2.98,4.56-7.31,5.67-11.79,2.31
		c-4.91,0.55-8.26-5.57-9.97-9.48c4.36-4.75,6.61,10.06,14.12,5.18c0.25-0.81,0.42-1.88,0.52-2.74c1.23-1.84,3.69,0.6,5.21-0.83
		c1.17-1.71,1.51-4.02,3.19-5.51c6.1-7.32,8.9,1.73,6.14-7.81c-0.43-3.35,2.36-5.09,4.95-6.62c2.26-1.12-0.86-4.05-1.59-5.48
		c-2.34-3.14-1.79-7.01-0.37-10.41c0.61-3.01,0.96-6.08,2.52-8.83c1.47-4.79,6.24-8.45,5.48-13.66c-1.36-3.62-5.71-7.53-1.31-10.94
		c3.04-3.67,5.93-7.57,8-11.87c0.19-2.76-0.06-5.55-0.23-8.34c0,0.04-0.01,0.07-0.03,0.09c-0.18-1.3-1.44-2.42-2.77-2.33
		c-2.16-0.25-4.33-0.63-6.47-1.02c-1.46-0.25-1.16-1.81,0.17-1.96c2.03-0.18,4.15,0.38,6.21-0.07c8.27-0.51-1.88-15.88-6.44-3.68
		c-0.22,1.36-1.62,2.3-2.79,2.81c-1.73,2.65-3.72,5.05-5.93,7.39c-3.98,5.98-8.09,14.71-16.28,14.97c-4.86-1.2-0.97,4.36-1.07,6.54
		c0.81,2.15,0.28,2.94-0.98,4.77c0.01-0.02,0.01-0.04,0.01-0.06c-1.06,0.54-0.66,1.62-0.54,2.53c-0.03,2.93-7.65,4.51-5.13,7.2
		c0.05,0.05,0.1,0.11,0.16,0.16c-0.06-0.05-0.11-0.11-0.16-0.16l-0.28,0.21c0.78,1.03,1.5,2.1,2.18,3.19
		c-0.22,0.43,0.16,1.45,0.51,1.87c0.92,0.29,2.46,1.03,1.96,2.29c-0.27,1.34-1.64,2.22-1.31,3.73c0.79,1.23,1.07,2.51,1.18,3.99
		c3.18,3.54,0.65,5.25-1.81,8.21c-3.67,6.74-4-9.35-11.43-13.79c0,0-0.01-0.01-0.02-0.01s-0.03-0.01-0.04-0.02
		c-0.01-0.01-0.03-0.02-0.04-0.03c0.01,0.01,0.03,0.02,0.04,0.03c0.01,0.01,0.03,0.02,0.04,0.02s0.02,0.01,0.02,0.01
		c0.02,0,0.04,0,0.06,0c-0.33-0.6-0.56-1.25-0.77-1.91l-0.68,0.13C445.4,323.89,443.96,325.23,442.59,325.87z"/>
	<path   d="M531.09,310.74c3.76,8.98-4.47,8.65-6.78,14.67c-0.34,3.18-6.33,3.1-3.39,6.71
		c7.55,17.43,13.73,1.85,16.56,11.72c0.24,5.31,5.24,6.4-0.36,10.98c2.43,7.46-10.33,2.57-6.57,12.97c2.89,3.66,1.54,9.22,7.61,9.14
		c-1.34,5.72-5.15,14.23,0.09,20.69c16.16-1.95-6.04,14.67,14.13,15.31c4.25,2.56-2.22,6.79,1.52,10.07
		c-2.05,3.26-8.25,3.47-8.3,7.99c4.93,7.92,2.47,5.1-0.56,12.61c0.28,2.96-2.37,4.96-4.49,7.13c-1.75,1.79-3.15,3.69-2.3,6.34
		c21.94,15.98-0.18,7.62-2.55,17.01c-0.07,0.26-0.13,0.54-0.16,0.84c8.71,2.92,1.54,10.43,6.38,14.89
		c5.37,4.66,12.82-1.35,17.78,2.52c2.01,10.16,3.68,4.36,10.16,9.21c-15.77,18.14-3.27,10.82,2.27,24.05
		c-2.98,3.94-9.09,5.29-5.43,11.03c-0.95,2.22-1.29,3.94-1.2,5.3c0.06-0.03,0.11-0.05,0.17-0.08c-0.06,0.03-0.11,0.05-0.17,0.08
		c0.32,6.07,8.98,4.9,9.1,9.69c-2.05,3.57-6.11,5.96-8.1,9.54c0.17,0.28,0.35,0.55,0.54,0.8c3.91,5.56,8.81,5.13,14.16,0.71
		c7.4-1.7,6.85,10.23,12.03,13.91c0.78,8.7-2.77,7.19,3.67,15.3c-0.43,2.81-3.62,3.87-4.75,6.39c1.88,3.07-1.7,3.78-2.82,5.8
		c-3.42,3.66-5.68,5.6-6.03,6.83c-0.47,1.66,2.5,2.02,10.69,3.52c3.32,0.32,8.01,3.67,10.64,0.59c2.58-5.25,9.79-5.25,11.39-11.38
		c6.25-4.57,8.87-4.52,8.34-13.54c5.85-4.29,14.8,4.19,18.02-2.95l-0.03-0.41c-3.02,0.06-2.66-6.5-6.4-7.14
		c-5.52-5.71,3.41-7.17,5.16-11.61c-0.05-3.67,1.07-6.74,0.79-10.21c2.19-2.37,1.35-5.1,2.44-8.1c2.29-3.69,6.12-7.67,4.26-11.99
		c-0.24-3.36-5.43-5.52-4.15-8.36c2.52-4.98,3.26-12.26,9.49-9.44c8.76,3.76,6.29-9.29,10.96-6.36c2.9,2.73,3.57,11.52,8.46,9.24
		c2.73-12.56-3.75-5.91,6.4-19.21c5.62-1.47,1.54-16.87,9.46-10.67c1.82,3.83,7.17,5.85,11.4,5.78c2.51-1.37,0.83-4.96,1.7-7.09
		c1.86-1.24,3.03-2.99,3.16-5.27c-1.63-6.55-8.42-3.68-2.32-12.36c-4.9-7.22-12.63-2.63-9.78-16.14c6.37-5.9,11.3-15.76,8.52-25.19
		c-3.66-4.28-5.03-4.58-1.55-9.6c0.71-4.2-7.38-6.59-1.61-10.36c4.96-1.99,7.88-2.96,9.51-3.26v-0.44
		c-4.05-10.89-30.08,9.79-14.84-20.59c-1.41-3.51-6.34-5.05-8.74-7.67c-1.57-7.63,0.16-7.23-5.19-12.65
		c0.45-3.92,5.79-3.93,4.25-8.71c-2.51-6.58-0.23-14.77-4.45-20.33c0.7-5.23-4.52-6.19-7.42-8.76c0.37-2.74,2.64-3.3,4.81-2.34
		c3.2-0.85,4.41-7.13,7.05-7.12c7.79,0.78,4.56-2.6,6.21-7.44c-0.2-3.88,5.31-5.2,4.25-9.56c1.67-4.82,11.11-7.19,2.65-10.91
		c-5.04-4.55-1.72-14.23-6.64-11.69c-2.66,0.69-4.12-1.83-4.89-3.97c-0.63-3.71-5.71-6.1-1.33-9.04c-8.11-3.45-1.97-7.61-3.46-13.93
		l-0.03-0.12h-0.01c-1.41,0.42-3.36,3.13-4.53,3.41c-0.67,0.29-1.67,0.08-1.94-0.65c0.07-0.48,0.63-1.56-0.08-1.76
		c-2.81-0.71-2.17-3.05-0.23-4.51c3.44-4.18,7.78-7.84,10.57-12.48c1.14-2.31-0.36-5.2-0.47-7.7c-0.74-1.37-7.67,0.01-6.32-3.06
		c1.15-0.8,2.64-0.17,3.86,0.06c0.67-0.03,0.79-1.58,0.39-2.04c-1.12-1.25-1.88-2.7-2.65-4.19c0.04-1.01-0.56-3.57-2-2.44
		c-0.59,0.79-1.65,1.54-2.28,0.29c-0.43-1.33,1.18-1.81,1.47-2.9c0.1-1.17-1.32-0.4-1.96-0.56c-1.87-1.09-3.36-2.85-4.91-4.37
		c-2.35-3.48-1.91,3.35-4.03,3.52c-2.73,0.76-5.53-1.42-8.27-0.42c-0.64,0.19-0.96,0.75-0.82,1.4c2.33,7.14-9.99,9.58-5.43,1.72
		c0.94-2.52,6.37-3.1,5.24-4.61c-0.27-0.76-1.53-0.51-1.56-1.41c0.81-1.26,1.17-3.4-0.22-4.41c-0.78-0.12-1.42,0.02-2.21-0.06
		c0.06,0.02,0.08,0.05,0.07,0.1c-1.1,0.67-2.19-0.23-3.22-0.52c-1.82,0.07,0.25,3.72-3.13,3.09c-1.18,0.23-1.11-1.06-1.6-1.77
		c-1.62-1.74-4.85-3.66-7.25-3.31c-3.42,4.55-9.28,8.3-9.12,14.56c0.03-0.2,0.09,0.16,0.08,0.16c0.91,5.58,2.26,4.03,5.09,7.66
		c0.82,4.06-6.29-1.17-8.18-0.46c-1.14-0.11-5.14,1.47-2.91,2.62c4.09,3.12,4.47,4.8-1.06,2.46c-0.89-0.14-1.49,0.61-1.9,1.3
		c-0.78,0.46-1.6,0.92-2.32,1.49c-0.11,0.79-2.79,1.96-2.52,0.47c0.58-1.23,2.38-2.43,0.49-3.45c-2.06-0.54-3.55-3.18-0.67-3.73
		c1.09-0.29,3.11,0.14,2.58-1.64c-1.09-1.21,0.44-3.04-0.37-4.41c-2.15-0.31-0.51,4.19-2.83,4.07c-3.31-0.48,0.64-10.93-5.39-7.77
		c-2.62,2.15,0.41,4.93-4.41,6.41c-1.54,0.91-4.08,2.07-3.38,4.28c2.01,1.86,6.57-1.96,7.5,1.66c-0.69,1.74-3.11,1.17-4.48,2.05
		c-0.54,0.29-0.6,0.96-0.47,1.5c-0.04,1.25-1.9,1.4-2.75,2.03c-0.49,0.21-3,0.58-2.48,1.72c0.79,0.52,2.75-0.03,1.97,1.62
		c-0.76,1.1-2.27,0.86-3.17,1.6c-1.81,3.04-5.42,2.08-8.34,2.34c-4.78,4.52-6.78-0.28-9.75,5.58c-2.17,3.58-5.15-0.3-6.11,4.13
		c-0.42,0.98-1.46,0.76-2.21,1.21c-3.88,2.83-1.06,4.48,1.9,6.16c0.81,0.72,0.02,1.92,0,2.84c-0.38,1.28-0.08,2.63-0.1,3.96
		c-0.11,0.08,0.23,0.4,0.24,0.53c1.92,0.2-0.54,1.53,0.38,2.17c0.61,0.38,1.85,0,1.88,0.96c-0.08,1.22-1.4,1.89-2.12,2.72
		c-0.8,1.11-1.07,3.17-3.01,2.51c-1.03-1.29-0.28-4.77-2.85-4.56c-4.02,1.38-9.1,1.01-13.49,1.07c-2.36-0.1-4.72,0.35-7.08,0.22
		c-1.75,0.02-3.92-0.72-4.93,1.19c-0.48,0.6-1.15,0.72-1.84,0.89c-1.3,0.65-1.15,2.61-1.32,3.77c-0.21,0.7,0.25,1.23,0.49,1.84
		c0,2.37,0.36,4.73-0.03,7.11c-0.22,2.12-0.84,5.52-3.72,4.84c-1.07-0.27-1.59-1.4-2.63-1.82c-1.6-0.4-3.34,0.18-4.19-0.59
		l-0.21,0.23C538.75,303.01,519.09,294.54,531.09,310.74z"/>
	<path   d="M1011.73,199.25c-2.25-1.13-8.34,2.45-7.57-2.06c-2.25-3.44-3.19-8.98-9.71-8.9
		c-3.14-0.12-1.48-3.75-3.32-4.93c-1.29-0.72-4.03-1.38-4.02-3.1c-0.25,0.03-0.49,0.08-0.72,0.13c0.23,0.11,0.46,0.21,0.7,0.29
		c-0.24-0.08-0.47-0.18-0.7-0.29c-6.16,1.23-9.08,6.55-15.3,5.96c-1.9,3.92-4.67,5.88-8.98,6.58c-2.96,2.8-8.96,5.71-11.14,1.52
		c-1.6-1.13-3.23-2.2-4.91-3.21c4.24,8.56-5.26,16.66-11.06,22.44c-3.53,3.19,5.53,3.48,1.48,6.86c-4.71,4.6,0.74,3.32,3.52,5.18
		c-0.12,11.1-0.86,6.94,7.2,16.41c-0.21,4.43-4.11,15.89-10.55,13.75c-5.23,8.95-11.77,4.58-2.4,12.89
		c-1.32,4.8-9.99,4.92-10.82,10.04c4.1,3.29,6.91,6.48,8.25,11.52c4.74,3.12,8.43,8.17,9.32,13.81c10.23-12.9,26.88,0.76,26.47,15.8
		c6.71-3.48,13.35-4.55,17.3,3.29l-0.4,0.25c-0.01,0.03-0.02,0.05-0.04,0.06c0.16-0.03,0.31-0.05,0.47-0.06
		c0.77-0.09,1.54-0.09,2.36-0.09c1.51-0.89,0.79-3.83,2.69-4.75c1.59-1.59,3.94-0.56,5.63-1.79c0.87-0.65,1.71-1.98,0.32-2.56
		c-2.06-0.5-3.49-2.49-2.46-4.55c-0.6-1.24-1.1-2.1-0.02-3.34c3.28-3,7.25-5.46,10.56-8.35c2.16,0.68,3.95-0.79,5.37-2.28
		c4.18-1.74-0.71,4.2-1.4,5.37c-2.16,3.73,5.88,2,7.49,1.03c2.25-0.85,0.88-3.6,0.83-5.36c-0.03-0.62,0.26-1.37,0.99-1.44
		c5.61-3.21,0.17-4.1,2.12-8.27c0.68-1.8,3.12-1.73,3.84-3.32c0.27-3.04,4.5-4.93,3.89-8.19c-0.83-0.84-2.3-1.45-3.37-0.73
		c-2.69,1.67-4.26,5.22-7.9,4.69c-3.43-8.03-5.16-10.45-4.98-19.9c-0.89-4.98-5.19-8.56-7.01-13.27c-0.96-1.73-1.3-3.7-0.34-5.58
		c-0.12-2.62,1.22-4.64,2.85-6.53c1.16-2.02-0.64-4.66,1-6.47c1.58-2.27,1.44-0.68,3.06-1.01c1.87-1,1.62-3.16,2.35-4.84
		c1.03-2.65,7.99,8.01,11.49,7.78c-0.42-0.46,0.47-1.54,0.99-1.7c1.52,0.38,0.77,2.88,2.15,3.41c3.16,0.12,2.44-3.94,1.8-5.75
		c0.51-0.44,1.43-0.99,0.75-1.74c-4.2-3.59-3.32-5.23-4.62-9.81c-0.69-1.91-1.47-4.15-1.03-5.91
		C1020.76,203.47,1015.77,204.56,1011.73,199.25z"/>
	<path   d="M927.64,183.8c5.79,0.97,11.95-0.81,16.2,4.26c0.97,1.06,1.7,2.12,2.22,3.18c1.68,1.01,3.31,2.08,4.91,3.21
		c2.18,4.19,8.18,1.28,11.14-1.52c4.31-0.7,7.08-2.66,8.98-6.58c6.22,0.59,9.14-4.73,15.3-5.96c-5.29-2.53-7.95-11.64,0.25-9.89
		c2.34-6.14,7.48-7.18,8.44-14.09c0.92-2.29,4.12-1.49,5.39-3.33c0.99-1.41,1.12-4.43,3.27-4.28c4.11,2.61,7.2-2.83,11.05-3.48
		c7.02,0.05-0.15,15.67,8.43,12.04c2.99-9.39,12.61-3.76,16.85-10.48c1.17-4.69,1.17-9.81,2.77-13.94c-0.5-2.5-1.94-6.49,0.79-8.04
		c5,1.14,6.45,1.12,11.33-0.87l0.46-0.06c-0.19-1.26-0.37-2.48-0.5-3.85c-0.01-0.02-0.01-0.05-0.01-0.08c0,0.03,0,0.06,0.01,0.08
		c0.01,0.03,0.02,0.05,0.04,0.06c0.38-2.01-1.74-3-1.81-4.9c-0.04-0.97,0.27-2.07-0.31-2.94c-0.37-2.26-2.34-3.99-2.29-6.34
		c-0.14-2.36-3.67-1.1-4.59-2.61c-0.36-1.81,3.17-0.88,4.19-1.91c6.6-2.91,1.13-5.05,6.88-7.37c0.79-0.67,0.51-1.82,0.75-2.72
		c-0.34-1.08-1.4-1.73-1.99-2.65c-0.58-1.22-1-2.91-2.44-3.36c-3.22-2.24-7.49,6.65-7.52,1.41c-0.61-3.89-6.75,3.98-8.26,4.46
		c-1.8-0.04-1.05-2.96-2.47-3.46c-0.02,0.1,0.02,0.18,0.12,0.24c-1.95,0.45-3.79,1.05-5.78,1.28c0.44-0.22-0.43-0.45-0.51-0.53
		c-0.74-1.86-3.54-1.41-4.66-0.23c0.56,1.11,2.61,2.89,0.53,3.74c-1.25,0.9-3.07,0.07-4.49,0.4c-2.7,0.62-1.14,5.55-3.99,7.28
		c-1.15,0.59-3.59,0.68-2.9-1.3c0.47-1.21,3.76-2.57,0.92-3.03c-2.27-0.27-4.3-0.73-1.84-3.01c1.31-0.56,2.8-0.5,4.05-1.22
		c2.69-0.54,3.94-3.4,5.06-5.63c0.8-4.44-7.31-14.67-9.7-17.95c-0.66-0.88-2.43-1.36-3.4-0.68c-0.83,0.9-1.36,2.23-2.71,2.37
		c-2.09,1-1.73-1.89-2.83-2.72c-0.98-0.21-2.13,0.07-3.11-0.18c-2.5-1.23,0.41-2.13,1.79-2.08c0.11-1.59-1.7-2.85-1.79-4.41
		c2.27-3.35,6.64,6.74,9.03,2.64c2.61-1.72,5.62,1.82,6.34-2.57c-0.48-1.41-1.16-2.74-0.63-4.3c0.41-0.82,0.06-1.94,0.8-2.58
		c0.86-2.17,1.42-4.54,2.85-6.38c3.04-0.8,5.92,1.84,9.1,1.76c-0.04-2.31,2.15-4.02,3.74-5.44c1.16-1.07,0.86-2.74,1.68-3.88
		c1.12-2.1,7.28-2.42,3.9-5.44c-1.43-0.97,0.39-1.48,1.26-1.65c1.51,0.47,1.06-1.6,0.12-2.06c-1.8-0.95,0.11-1.92,0.63-2.96
		c0.2-3.03-2.85-3.27-4.13-0.91c-1.75,1.46-4.72-0.64-6.81-0.87c0.17,0.02,0.29-0.04,0.38-0.17c-1.61-2.35-2.68-3.98-5.28-1.69
		c-0.44-0.18-0.63-0.9-1.17-0.89c-1.24-0.22-3.5,2.65-4,0.55c0.29-1.93,2.78-2.33,3.68-3.97c1.34-1.03-0.26-3.41-1.61-3.68
		c-0.99-0.24-2.02,0.31-2.95-0.02c-0.53-1.11,0.57-1.64,1.3-2.16c1.31-1.88-1.1-2.67-2.48-2.87c-0.76-0.73,0.27-2.35-0.77-2.93
		c-2.17-0.37-4.46,0.8-6.59,1.26c0.07,3.6-18.79,10.81-10.99,13.06c1.2,1.34-0.11,3.43-1.57,3.92c-1.25,0.62-2.93,0.78-2.41,2.64
		c0.59,1.62-0.75,4.5,0.78,5.43c2.03,0.43,2.87-2.37,4.87-2.07c2.24,1.43,2.42-0.01,4.26-0.92c2.68-1.4,1.29,3.69-0.04,4.47
		c-1.52,0.51-3.29,0.32-4.91,0.33c-5.47,0.45-3.95,1.49-8.73-1.95c-0.16-0.01-0.6-0.06-0.75,0.03c-0.6,0.35-0.34,1.34-0.86,1.75
		c-1.76,0.36-6.87,2.34-5.71,2.87c1.12,1.27,0.69,2.62-1.02,1.55c-1.28-0.01-3.44,0.23-3.43,1.88c-0.38,0.52-0.42,1.52-1.26,1.48
		c-4.32,0.16-3.17,5.44-7.27,6.98c-3.41,3.01-7.23,5.56-11.28,7.73c-3.51,2.29-7.32,3.87-9.42,7.72c-0.53,2.29-3.87,4.36-5.71,6.22
		c-1.74,1.66-4.32,2.7-5.11,5.06c1.93,3.97-1.05,3.68-2.82,6.16c-1.01,1.19-0.2,2.87-0.78,4.22c-0.28,0.79-1.11,1.61-1.34,2.37
		c7.42,1.68,0.28,3.11-1.95,5.89c-1.13,0.83-1.44,2.21-1.42,3.52c-0.35,1.3-2.04,1.03-2.97,1.72c-0.27,0.1-0.26,0.02-0.51-0.01
		c-0.77-0.08-1.46,0.8-1.79,1.39c1.86,2.68,4.92,5.08,7.99,6.06c0.48,1.43,2.27,0.93,3.39,0.49c2.19-1.79,4.68-3.11,6.8-0.48
		c2.74,0.36,5.03-0.25,2.73,3.3c-0.47,0.63-0.74,1.33-1.29,1.87c-0.34,1.59-1.79,5.78-3.61,2.94c-0.45-0.8-0.49-1.55-1.54-1.55
		c-3.29,0.4-5.55,7.32-9.06,3.53c-0.58-0.94,0.3-2.54,1.06-3.12c0.39-0.1,0.53-0.02,0.53-0.55c0.07-0.95-3.41-5.03-4.3-4.36
		c-2.12,1.82-4.34,4.38-2.58,7.22c2.96,0.9,1.18,4.19,0.31,6.07c-0.06,3.55-1.92,6.79-4.22,9.41c-1.22,2.59-5.85,2.63-5.33,6.07
		c0.7,1.5-0.05,2.77-0.87,4c-0.72,1.23-0.83,2.65-0.84,4.05C949.32,154.21,910.59,173.44,927.64,183.8z"/>
	<path   d="M683.97,268.16c-4.38,2.94,0.7,5.33,1.33,9.04c0.77,2.14,2.23,4.66,4.89,3.97c4.92-2.54,1.6,7.14,6.64,11.69
		c8.46,3.72-0.98,6.09-2.65,10.91c1.06,4.36-4.45,5.68-4.25,9.56c-1.65,4.84,1.58,8.22-6.21,7.44c-2.64-0.01-3.85,6.27-7.05,7.12
		c-2.17-0.96-4.44-0.4-4.81,2.34c2.9,2.57,8.12,3.53,7.42,8.76c4.22,5.56,1.94,13.75,4.45,20.33c1.54,4.78-3.8,4.79-4.25,8.71
		c5.35,5.42,3.62,5.02,5.19,12.65c2.4,2.62,7.33,4.16,8.74,7.67c-15.24,30.38,10.79,9.7,14.84,20.59v0.44
		c6.16-1.11-6.11,7.47,4.29,7.72c8.63,0.13,6.55,13.74,13.04,18.48c1.15,5.26-0.29,11.58,6.82,12.46c7.28,5.27-1.66,13.33-1.4,19.41
		c5.98,3.73,1.73,10.05,5,14.86c4.51,3.63,7.15-0.76,10.17-4.45c2.81-0.25,7.62,0.47,7.51-3.52c4,0.02,4.99,1.75,6.39,4.92
		c6.49-1.84,2.35-14.25,8.94-18c1.38-6.74,1.43-16.9,11.49-16.51c6.45,1.31,6.93,9.05,12.67,11.44c2.75,0.96,4.86-6.92,7.44-3.29
		c2.3,6.27,9.04,9.33,11.49,15.2c0.08,0.19,0.15,0.38,0.22,0.58c-0.07-0.2-0.14-0.39-0.22-0.58l-0.2,0.99
		c0.1,0.01,0.2,0.04,0.3,0.06c3.75,1.01,1.85,7.76,6.79,7.73c3.7-1.3,3.96,4.57,7.27,5.72c1.71-0.13,2.41,0.26,2.66,0.94
		c5.09-1.54,9.91-8.63,14.48-4.04c4.4-1.41,5.16,1.78,8.79,2.73c3.21-0.33,6.24-4.14,9.55-1.16c3.01,0.92,5.17-0.79,8.25,1.4
		c5.68,0.27,9.01-5.91,13.65-1.13c3.4,1,4.05-3.33,6.76-4.12c3.87-0.1,4.1-3.48,6.49-5.73c3.25-3.11,8.69,1.38,11.57-1.84
		c2.68-1.81-0.07-5.86,2.03-7.4c3.18-0.11,4.6-2.08,5.56-4.86c2.72-0.23,4.7-1.78,6.2-3.42l0.28-0.25c-0.97-0.84-1.2-3.77-5.65-7.02
		c7.61-18.32-8.41-5.54-4.23-13.73c0.59-2.25-0.09-3.6-2.18-4.26c-0.77-2.03,0.63-5.37-1.37-7.19c-4.95-0.94-0.44-4.08-3.11-6.11
		c-0.78-2.42,0.16-4.09-1.88-6.26c0.21-3.4,3.75-6.54-1.36-7.88c-1.3-3.44,3.95-2.85,5.86-3.82c2.73-3.48,7.4-4.11,10.11-7.2
		c-0.59-8.88,12.43-7.52,10.02-17.56c-0.72-3.37,2.33-6.39-0.61-9.32c-4.69-3.63-5.97-9.41-11.81-11.48
		c0.76-9.59,6.02-20.01-0.34-29.35c8.65-5.08,16.15,5.31,18.07-9.11c2.28-0.93,4.39,0.96,6.49,1.58c5.93-1.22,0.07-7.44,0.39-10.65
		l0.07-0.22c-0.89-5.64-4.58-10.69-9.32-13.81c-1.34-5.04-4.15-8.23-8.25-11.52c0.83-5.12,9.5-5.24,10.82-10.04
		c-9.37-8.31-2.83-3.94,2.4-12.89c6.44,2.14,10.34-9.32,10.55-13.75c-8.06-9.47-7.32-5.31-7.2-16.41c-2.78-1.86-8.23-0.58-3.52-5.18
		c4.05-3.38-5.01-3.67-1.48-6.86c5.8-5.78,15.3-13.88,11.06-22.44c-0.13-0.08-0.26-0.16-0.39-0.24c0.13,0.08,0.26,0.16,0.39,0.24
		c-0.52-1.06-1.25-2.12-2.22-3.18c-4.25-5.07-10.41-3.29-16.2-4.26c-17.05-10.36,21.68-29.59-14.36-36.49c0,0.03,0,0.05,0,0.08
		c-1.12,1.13-2.36,2.24-3.19,3.59c3.87,1.91-2.81,7.44-5.45,6.99c-6.13-1.65-1.54-5.65-11.58-6.31c0.06,0.63-1.2,0.3-1.58,0.37
		c-1.44,0.28-2.99,0.48-4.27,1.3c-4.93,2.42-9.65,6.35-11.89,11.45c-1.94,5.07-1.7,11.34-6.26,15.12c-1.81,1.99-4.77,0.09-7.15,0.04
		c-4.08-2.71-9.55,7.52-16.09,6.27c-0.45-1.97,1.61-3.34,3.07-4.18c1.25-1.09,0.46-2.58-0.12-3.77c-1.08-1.56-3.32-0.44-4.9-0.54
		c-3.2,1.35-6.52,3.55-8.53,6.41c-2.72,6.71,6.46,15.13-0.76,17.58c-0.08,0.03-4.34-1.04-3.49-2.81c0.73-2.41,3.21-4.19,2.97-6.86
		c-0.06-1.15-1.22-0.99-1.81-0.29c-1.01,1.42-5.2,8.16-6.43,4.01c0.67-3.1,3.88-4.38,5.58-6.7c-0.75-5.01-9.27,5.14-11.28,6.21
		c-2.27,2.02-5.08,3.92-8.25,3.73c-7.38,0.02-12.19,0.45-2.44,5.02c0.25,0.22,0.65,0.53,0.74,0.88c-0.75,1.37-1.79,2.86-2.47,4.41
		c-0.55,1.44-1.77,3.39-1.51,5.28c-0.16,0.88-0.52,2.3,0.87,1.84c1.59-0.39,2.45-3.38,4.16-3.01c1.22,1.18-0.15,3.23,0.57,4.52
		c2.12,0.84,4.96,2.55,4.38,5.22c-2.49,1.57-3.91-1.42-6.24,2.16c0.81,1.79-0.11,2.06-1.66,2.97c-3.03,1.65,0.01,1.89,1.68,2
		c1.2-0.05,3.62-0.64,3.2,1.35c-1.22,2.76-9.71,0.56-12.27,0.07c-4.52,1.07-1.74,7.11-4.96,9.26c-3.26,1.96-6.15-0.59-8.48-2.71
		c-5.98-0.62-0.51,5.96,0.54,8.22c0.6,1.9-0.64,3.9,0.13,5.75c0.54,1.37,1.64,2.43,1.87,3.93c-0.52,3.94-4.86,2.84-7.47,1.74
		c-3.11-0.01-7.52,0.64-8.97-2.96c-1.02-1.87,0.47-7-3.19-5.81c-0.93,0.35-0.77,1.46-1.3,2.1c-1.42,1.39-2.87-0.98-3.24-2.22
		c-0.05-2.31,3.07-2.74,3.49-4.67c0.54-2-2.2-3.57-3.77-2.25c-1.53,0.42-0.06-4.48-3.02-6.12c-2.94-2.42-6.24-4.51-9.5-6.45
		c-1.5-0.02-2.4,1.83-3.58,2.62c-3.6,9.09-9.35-5.32-14.68,5.23c-4.25,4.94,0.45,4.86,2.35,8.65c-0.56,5.56-8.95,9.12-14,9.68
		c-8.99-0.33-5.83,1.49-7.06-5.01c-2.99-2.95-6.48,0.43-9.67,0.7c-4.93-1.13-7.84,3.24-11.26,5.96c-0.32,0.24-0.72,1.41-0.73,2.07
		c0.09,0.84,1.14,1.22,1.33,2.07c-0.51,1.37-3.14,2.07-4.04,0.61c-1.81-2.78,2.4-5.49-2.07-7.67c-0.65,0.14-0.69-0.37-0.81-0.86
		c-0.41-0.37-0.91,0.4-0.94,0.8c-0.92,3.17-0.87,3.9-4.47,3.35c-0.84-0.84-1.46-2.01-1.79-3.24c-0.3-0.43-0.67-0.52-1.11-0.37
		l0.03,0.12C682,260.55,675.86,264.71,683.97,268.16z"/>
	<path   d="M1078.55,482.31c0.01,0.01,0.02,0.02,0.03,0.03c0.05,0.02,0.1,0.05,0.15,0.07
		C1078.68,482.29,1078.62,482.26,1078.55,482.31z"/>
	<path   d="M293.41,274.02c0.02,0.05,0.08,0.07,0.18,0.07C293.53,274.07,293.47,274.04,293.41,274.02z"/>
	<path   d="M508.38,274.74c-4.17,8.48,10.43-2.13,2.78-2.51C510.24,273.07,509.31,273.91,508.38,274.74z"/>
	<path   d="M515.8,267.39c-0.57,1.07-1.08,2.17-1.54,3.29c2.35,0.08,5.06-0.07,6.72,2.33
		C524.51,272.11,516.71,265.57,515.8,267.39z"/>
	<path   d="M519.57,274.45c-0.73,1.04-1.42,2.11-2.08,3.21C518.03,282.01,524.15,275.49,519.57,274.45z"/>
	<path   d="M533.42,281.34c-2.32-1.59,1.94-6.16-1.56-6.02C521.64,282.93,536.03,292.15,533.42,281.34z"/>
	<path   d="M551.7,241.35c-1.42,3.08-7.07,2.71-4.45,6.2C550.09,254.2,554.2,242.91,551.7,241.35z"/>
	<path   d="M553.54,237.7c2.84,2.93,4.45,0.16,3.9-3.22c-2.25-4.49-4.2,3.17-7.22,1.04c-0.02,1.08,0.05,2.15,0.23,3.22
		C551.36,240.09,552.8,238.26,553.54,237.7z"/>
	<path   d="M559.54,262.45c10.05,2.06,7.03-0.56,3.91-7.16c-2-0.39-1,3.1-2.16,3.99
		C559.49,260.5,556.05,260.67,559.54,262.45z"/>
	<path   d="M560.99,265.65c0.04,0.77,0.11,1.55,0.2,2.32C565.96,271.39,565.48,261.2,560.99,265.65z"/>
	<path   d="M552.64,267.28c1.48,0.74,2.43,1.52,3.71,2.96C564.35,269.78,548.81,259.18,552.64,267.28z"/>
	<path   d="M548.99,264.15c-1.3,1.28-2.39,2.31-0.78,3.77C551.01,268.35,551.63,264.33,548.99,264.15z"/>
	<path   d="M557.32,257.86c0.11,0.18,0.13,0.25,0.11,0.26C564.9,259.02,556.52,249.85,557.32,257.86z"/>
	<path   d="M580.36,238.25c-1.11,1.3-3.71,2.27-2.48,4.36C580.22,244.89,581.94,239.22,580.36,238.25z"/>
	<path   d="M585.11,239.98c-1.39,0.76-2.62,1.38-1.76,3.12C587.06,245.8,587.94,234.85,585.11,239.98z"/>
	<path   d="M596.92,234.95c-0.62-3.99-3.35-0.55-4.8,0.93c-1.5,1.14-4.44,1.37-2.14,3.69
		C592.84,240.17,594.86,236.56,596.92,234.95z"/>
	<path   d="M582.77,219.71c1.7,0.73,3.41-2.15,2.13-3.47C582.52,214.56,580.57,218.16,582.77,219.71z"/>
	<path   d="M584.91,213.89c8.2-1.72-3.13-7.9,0.18-0.44C584.9,213.86,584.9,213.88,584.91,213.89z"/>
	<path   d="M588.96,218.36c1.86,0.35,3.18-1.48,2.61-3.2C588.96,212.6,585.09,216.84,588.96,218.36z"/>
	<path   d="M592.77,213c0.11,1.3,2.72-1.18,2.01-2.21C593.43,207.02,588.81,211.22,592.77,213z"/>
	<path   d="M618.64,200.7c0.46,4.52,6.83,4.45,8.97,0.73c2.38-3.72,8.12-3.25,10.51-5.69c2.24-1.84,2.96-8.91-1.86-7.46
		c-0.65-1.57,0.16-4.13-2.2-4.51c-2.72-2.08-4.63,3.48-4.13-1.89c0.2-6.27-4.2-0.21-7.07-0.04c-1.14,4.23,3.23,9.63-2.09,11.81
		C619.32,196.36,623.21,199.35,618.64,200.7z"/>
	<path   d="M602.51,170.38c-2.63,0.94-5.25,1.94-7.84,2.98c-0.29,0.11-0.58,0.23-0.87,0.35c0.29-0.12,0.58-0.24,0.87-0.35
		l-0.06-0.16c-2.78,0.05-10.68-3.18-4.1,4.03c1.1,2.73,2.68,2.87,5.37,2.61c0.26,0.5,0.57,0.95,0.89,1.36
		c2.38-1.72,4.72-3.49,7.05-5.28c-2.13-0.16,5.53-5.32,5.66-4.34l0.19-0.03v-0.01c-0.17-0.71-0.61-1.31-1.63-1.52
		c-0.42-0.19-0.5-0.34-0.41-0.49C605.95,169.08,603.02,171.62,602.51,170.38z"/>
	<path   d="M592.83,169.45c2.43,0.15,3.41,1.75,1.78,3.75l0.06,0.16c2.59-1.04,5.21-2.04,7.84-2.98
		c0.51,1.24,3.44-1.3,5.12-0.85c0.28-0.48,2.11-1.05-0.01-3.29c0.15-1.84,2.27-2.71,0.7-4.46c1.2-4.11-3.62-2.4-3.73-6.92
		c-0.21-2.28-2.48-4.46-3.05-0.99c0.61,3.85-2.92,2.49-4.43,4.68c-3.59,2.86-3.73,1.05-2.92,6.58
		C596.02,167.34,588.82,167.35,592.83,169.45z"/>
	<path   d="M603.82,175.92c-2.33,1.79-4.67,3.56-7.05,5.28c1.78,2.29,4.18,3.57,3.55,7.31c1.45,2.21,4.54,2.49,6.95,2.04
		c2.67-0.62,1.86,3.49,4.26,3.53c4.44-1.94,3.24,2.38,6.63-4.29c2.94-6.72-1.91-2.92-1.53-4.91c2.88-3.95,3.93-11.6-3.2-12.07
		c-5.55,4.68-3.19,1.09-3.76-1.26l-0.19,0.03C609.35,170.6,601.69,175.76,603.82,175.92z"/>
	<path   d="M590.35,153.15c-1.93-0.34-4.96,2.28-3.71,4.5C589.44,161.74,592.35,155.5,590.35,153.15z"/>
	<path   d="M594.02,154.63c0.17,0.58,0.35,1.16,0.55,1.73C598.24,159.36,598.15,149.84,594.02,154.63z"/>
	<path   d="M589.74,184.55c1.69,1.1,3.12,0.69,4.84,2.13C602.46,184.38,587.3,177.81,589.74,184.55z"/>
	<path   d="M401.29,254.35c4.15,0.47,1.14,3.69,2.78,5.04c1.53,1.43-1.7,4.54-2.33,6.33c0.57,6.08,3.47-0.23,1.99,7.66
		c1.35,1.01,4.98-0.56,4.66,2.07c2.76,0.94,6.22,1.28,8.76,3.42c3.46,0.01-2.46-10.82-0.94-14.06c1.83-2.33,1.51-4.66-0.38-6.71
		c0.09-4.09,5.51-4.08,5.81-9.61c2.76,2.19,2.73-2.38,5.42-2.42c1.8-0.81-0.33-2.73,1.96-3.2c5.22-3.34-11.69-14.23-13.16-5.83
		c-12.26-4.99,1.76,3.96-7.22,6.42c-4.35,8.81-6.87-8.85-10.85,9.89C397.26,255.84,399.95,254.27,401.29,254.35z"/>
	<path   d="M427.74,230.03c-2.46,2.67-3.19,1.66-0.29,4.89c1.61,1.52,3.21,3.05,4.8,4.6c-0.93,3.33,2.99,2.5,2.28-0.36
		c2.29,1.22,3.64,0.34,2.89-2.55c4.99,1.13,4.51-2.49,4.94-4.62c7.88,2.09,4.44-1.39,10.17-4.21c3.09,0.89,9.12,0.73,7.74-3.86
		c1.66,0.23,2.57-1.2,3.98-1.7c1.42,1.99,5.07,3.69,5.13,0.18c4.32-0.43,8.48-4.72,11.14-0.69c4.23,1.77,4.08-5.05,5.98,0.2
		c3.45,1.74,4.49-3.26,6.91-3.81c3.23,1.25,7.92,0.29,8.68-3.61c2.71-9.03-7.22-8.57-11.19-4.13c-2.75,0.75-6.22,0.69-7.81-1.54
		c-6.48,4.63-5.37-0.02-9.81-2.05c-2.88,3.63-2.29,1.02-5.54,3.33c-2.45-0.42-5.79,0.23-7.11-2.01c-3.2,1.47-6.11,3.4-8.63,4.33
		c-2.91-1.3-2.38,2.8-4.65,2.45c-1.75-0.13-1.32-2.57-3.62-1.53c-0.45,0.4,0.32,1.59-0.62,1.55c-0.78,0.66-0.03,2.44-1.12,2.43
		c-1.04,0.19,0.38,1.75-0.77,1.75c-0.72,0.95-2.5,0.21-2.15,2c-1.76,1.02-2.99,1.39-3.98,3.61c-1.96-0.74-3.5-1.19-3.94,1.56
		C427.27,224.84,422.51,226.37,427.74,230.03z"/>
	<path   d="M399.74,256.39c-2.1,0.96-2.22,3.83-1.42,5.84C401.75,265.69,402.67,256.28,399.74,256.39z"/>
	<path   d="M365.03,279.9c4.74-0.84,9.73-0.49,6.09-5.9c-0.24-1.84-1.55-8.87-4.39-6.29c-0.63,5.61-12.11,5.34-9.07,10.44
		C360.1,278.8,362.55,279.38,365.03,279.9z"/>
	<path   d="M512.54,134.61c0.53,1.06,1.14,2.21,2.55,1.82c1.77-0.95,0.12-7.41-2.17-6.46c-1.52,2.71-1.99,1.05-4.08,1.2
		c-0.02,1.54,0.04,3.07,0.19,4.61C512.36,137.27,510.95,133.7,512.54,134.61z"/>
	<path   d="M506.03,145.84c1.07,5.94,8.29,5.84,10.74,0.36C518,138.13,508.96,142.83,506.03,145.84z"/>
	<path   d="M467.84,128.03c0.12,0.01,0.24,0.05-0.14-0.29c-1.61,0.08-3.21,0.19-4.82,0.34
		c-4.52-0.05-2.21,10.28,2.28,6.43c7.15-5.21,8.28,0.99,11.97-2.27C480.37,116.2,470.68,129.43,467.84,128.03z"/>
	<path   d="M467.52,137.18c-0.36,1.96,2.19,3.54,3.81,3.76C477.85,139.39,468.37,133.53,467.52,137.18z"/>
	<path   d="M477.2,140.92c5.66,4.63,4.37-6.42-1.02-3.49C474.79,138.62,476.26,140.03,477.2,140.92z"/>
	<path   d="M486.7,138.09c3.61,3.66,7.76,1.62,9.46-2.13c-5-4.75,8.34-6.37,1.95-8.49c-1.46,0.53-2.6,2.46-4.08,0.82
		c-1.6-0.55-1.03,2.11-2.13,2.46c-3.12-0.99-1.1,0.85-2.37,1.45c-3.9-1.43-4.85,2.67-2.76,5.22
		C486.92,138.06,486.84,138.11,486.7,138.09z"/>
	<path   d="M482.74,145.19c0.23,0.84,0.47,1.67,0.74,2.49C490.77,151.56,487.96,138.54,482.74,145.19z"/>
	<path   d="M489.28,148.16c1.37,0.44,2.75,0.8,4.15,1.07C498.42,141.27,484.76,143.03,489.28,148.16z"/>
	<path   d="M496.35,149.03c4.38,4.41,12.71-3.36,6.67-6.11C500.93,140.13,491.98,146.06,496.35,149.03z"/>
	<path   d="M502.65,137.25c-0.2,1.18-0.3,2.36-0.3,3.56C509.79,147.27,514.05,134.9,502.65,137.25z"/>
	<path   d="M466.45,124.16c2.18,3.63,8.43-0.26,4.96-3.46c-7.67-0.4-17.33-9.46-9.84,5.42
		C463.22,125.53,464.85,124.88,466.45,124.16z"/>
	<path   d="M501.78,128.07c4.84,3.62,9.82-5.28,4.29-4.4c-2.59,0.55-6.48,0.42-4.88,3.98
		C501.61,127.95,501.75,128.04,501.78,128.07z"/>
	<path   d="M778.64,201.97c-2.83-0.59-5.66-1.15-8.5-1.67C762.72,203.37,788.28,209.16,778.64,201.97z"/>
	<path   d="M762.57,189c9.44,3.74-2.09-7.02-2.75-10.41C752.51,175.85,759.69,187.24,762.57,189z"/>
	<path   d="M765.86,180.87c2.44,1.5,2.23,6.77,5.56,5.37c4.89-2.01,2.89,2.85,7.41,2.78c4.34-0.93,0.9-4.08,0.58-6.36
		c0.24-2.57,2.42,2.18,5.04-1.75c2.82-7.54,0.54-4.95,8.62-6.61c4.11-5.87-13.18,0.75-12.83-7.57c-1.95-12.63-13.18-1.7-3.15,1.37
		c2.94,0.9,0.82,4.44-1.63,3.66c-3.98-4.33-10.98-7.43-12.54,0.98C761.85,176.32,767.41,176.37,765.86,180.87z"/>
	<path   d="M800.81,197.61c4.16,3.05,4.09-2.91,5.71-4.27c5.36-1.46,8.6-0.92,2.94-6.12c-1.78-0.25-4.23-1.45-5.97-1.52
		c-1.17,2.79-4.75-1.38-5.32,3c-1.66,1.45-2.16-1.41-2.65-2.46c-3.74-3.14-6.09,2.65-4.3,5.86c9.17-1.04,4.84,3.95,4.15,8.62
		C797.9,201.16,798.44,196.87,800.81,197.61z"/>
	<path   d="M783.87,159.25c0.01-0.01-0.01-0.03-0.06-0.08C783.83,159.21,783.86,159.25,783.87,159.25z"/>
	<path   d="M791.24,170.23c12.84,0-1.59-5.35,0.37-11.33c-0.75-3.69-2.94-0.41-4.12,1.03c-2.6,1.21-1.1-1.93-3.78-1.11
		c-0.03,0.11,0.02,0.23,0.08,0.32c0,0.01,0.01,0.01,0.01,0.01c0,0.01,0.01,0.02,0.01,0.02c0.05,0.05,0.07,0.07,0.06,0.08
		c0.01,0.01,0.01,0.01,0.01,0.01s0,0-0.01-0.01c-0.01,0-0.04-0.04-0.06-0.08c0,0-0.01-0.01-0.01-0.02c0,0-0.01,0-0.01-0.01
		c-0.05-0.06-0.15-0.17-0.31-0.33C779.27,162.75,784.84,171.8,791.24,170.23z"/>
	<path   d="M797.86,159.57c3.15,1.51,4.49-2.06,6.72-3.29c5.49,7.53,6.62-6.29,9.1-10.05c-1.85-3.68-6.45,2.56-7.94,4.22
		c-1.66,1.11-3.36-0.95-5.03-0.35c-3.04,0.04,0.02,5.98-4.57,4.17c-0.16,1.6,0,3.17,0.5,4.73
		C797.59,159.42,797.82,159.53,797.86,159.57z"/>
	<path   d="M786.24,131.88c-0.25,2.07-0.52,4.15-0.83,6.22C791.58,143.43,793.93,126.38,786.24,131.88z"/>
	<path   d="M806.08,131.22c2.06-4.98-5.08-3.51-4.41,0.43C802.82,133.23,804.97,132.5,806.08,131.22z"/>
	<path   d="M808.96,136.55c5-1.31-2.8-6.04-2.06-0.32C807.08,137.32,808.29,136.51,808.96,136.55z"/>
	<path   d="M924.62,39.54c-10.17,5.49-4.52,11.89,0.08,19.26C931.3,71.19,932.44,29.63,924.62,39.54z"/>
	<path   d="M930.3,30.75c1.93-5.74-0.67-3.59-3.53-1.46c0.17,0.89,0.4,1.76,0.71,2.61
		C928.88,33.08,930.92,32.97,930.3,30.75z"/>
	<path   d="M1069.16,227.52c4.78,0.72,0.72-4.88,0.55-7.09C1070.66,199.01,1057.95,216.88,1069.16,227.52z"/>
	<path   d="M1128.51,238.23c3.93,1.18,13.72-1.64,10.58-6.84C1133.25,233.52,1116.85,227.82,1128.51,238.23z"/>
	<path   d="M1141.67,228.42c1.54,2.92,7.63,2.21,8-1.32C1149.63,220.63,1134.29,222.41,1141.67,228.42z"/>
	<path   d="M1140.79,345.58c-4.76,1.28,0.84,6.53,0.08,8.94c0.13,1.76,0.27,3.51,0.41,5.26
		C1150.09,364.7,1149.06,343.48,1140.79,345.58z"/>
	<path   d="M1149.54,366.61c-1.45,0.93-2.83,1.94-4.16,3.04C1147.13,375.88,1153.89,370.51,1149.54,366.61z"/>
	<path   d="M1149.28,381.71c2.57,3.08,8.28,3.28,7.3-2.9C1155.3,375.43,1148.07,378.1,1149.28,381.71z"/>
	<path   d="M1161.25,399.85C1155.1,404.81,1165.83,403.31,1161.25,399.85L1161.25,399.85z"/>
	<path   d="M1162.49,407.36C1158.8,410.38,1163.88,410.64,1162.49,407.36L1162.49,407.36z"/>
	<path   d="M1162.32,421.07c5.76,4.27,5.06-8.06,2-9.83C1161.06,412.34,1160.63,418.09,1162.32,421.07z"/>
	<path   d="M1160.41,435.26c-0.68,4.71-2.48,11.45-0.03,15.35C1168.01,456.28,1167.59,429.43,1160.41,435.26z"/>
	<path   d="M1158.78,457.84c-3.3,2.42-2.09,5.07-7.17,5.54c-2.66,2.45,1.92,3.42,2.19,5.43
		c-0.93,6.07-2.32,11.92,2.45,16.26c6.21-1.04,2.49-6.96,1.77-11.01C1155.41,469.06,1163.6,461.08,1158.78,457.84z"/>
	<path   d="M1155.19,488.67c-0.65-2.83-5.46,1.34-6.53,2.36c0.81,4.51,2.36,8.75,2.69,13.91c5.77,1.9,2.04-4.93,2.17-7.52
		C1153.25,494.43,1156.25,491.77,1155.19,488.67z"/>
	<path   d="M65.14,289.07c1.79-1.53,3.71-4.56,6.47-2.18c8.05,4.37,3.86-30.75-2.13-15.24c-1.55-1.99-3.09-3.97-4.62-5.96
		c-0.63-5.23-6.38-8.11-6.56,0.16c-3.29,1.87-5.78-3.3-8.86-1.94c0.73,4.71,8.31,9.3,9.7,14.63
		C61.06,281.33,60.76,289.64,65.14,289.07z"/>
	<path   d="M681.25,245.68c-1.33,5.48-3.21,6.9,4.29,5.97c2.51,1.23,6.62-7.25,4.29-8.94
		C687.1,242.29,684.95,246.72,681.25,245.68z"/>
	<path   d="M64.06,525.48c0.83,11.92,7.49-1.6,6.75-6.87c-0.65-5.32-7.65-5.57-10.55-9.39c-2.92-1.4-5.74-9.05-7.92-3.38
		c-2.02,7.84,11.85,9.97,8.14,14.51c-2.34,4.02-10.09,4.1-6.79,10.01C55.45,540.23,60.97,527.62,64.06,525.48z"/>
	<path   d="M261.54,265.91c-1.04-0.76-1.52-0.51-1.59,0.08c-0.08,0.75,0.53,2.07,1.53,2.43c1.1,0.34,1.66-0.13,1.76-0.76
		C263.37,266.87,262.76,265.83,261.54,265.91z"/>
	<path   d="M265.25,266.68c-0.43,0.34-0.63,0.7-0.67,1.07c-0.09,0.74,0.47,1.5,1.09,2.15c0.36,0.19,0.66,0.28,0.93,0.28
		C269.03,270.18,267.75,262.99,265.25,266.68z"/>
	<path   d="M971.03,431.71c-3.35,0.37-5.31,9.18-1.21,5.33c2.02-5.97,7.61-2.4,10.81-2.59c-0.15-3.07-3.2-5.9-1.78-9.9
		C973.53,420.39,973.66,429.79,971.03,431.71z"/>
</svg>
