<?xml version="1.0" standalone="no"?>
<!DOCTYPE svg PUBLIC "-//W3C//DTD SVG 20010904//EN"
 "http://www.w3.org/TR/2001/REC-SVG-20010904/DTD/svg10.dtd">
<svg version="1.0" xmlns="http://www.w3.org/2000/svg"
 width="461.000000pt" height="461.000000pt" viewBox="0 0 461.000000 461.000000"
 preserveAspectRatio="xMidYMid meet">
<metadata>
Created by potrace 1.11, written by Peter Selinger 2001-2013
</metadata>
<g transform="translate(0.000000,461.000000) scale(0.100000,-0.100000)"
fill="#000000" stroke="none">
<path d="M2147 4544 c-1 -1 -42 -4 -92 -8 -213 -14 -495 -80 -665 -154 -299
-131 -502 -265 -719 -475 -331 -322 -557 -750 -636 -1209 -9 -51 -19 -122 -23
-158 -13 -133 -5 -489 13 -543 2 -7 6 -31 9 -55 3 -24 15 -83 27 -130 11 -48
22 -94 24 -102 9 -39 61 -184 93 -260 55 -130 116 -244 197 -365 55 -82 63
-93 150 -199 80 -99 287 -297 344 -330 9 -5 22 -15 29 -22 22 -22 174 -120
257 -166 213 -117 492 -214 695 -243 24 -4 48 -9 51 -11 15 -9 214 -19 364
-18 167 1 327 20 470 55 44 11 90 22 102 25 112 23 375 138 539 234 55 33 103
60 106 60 3 0 91 -41 195 -91 103 -50 224 -108 268 -129 44 -21 145 -69 225
-108 80 -39 146 -69 148 -67 3 3 -34 83 -168 360 -178 368 -210 436 -210 446
0 5 22 37 49 72 464 592 592 1410 334 2122 -77 212 -191 419 -332 605 -145
191 -402 419 -614 546 -293 175 -618 281 -948 310 -66 5 -277 12 -282 8z m368
-548 c553 -100 1013 -449 1250 -949 47 -100 117 -299 129 -367 2 -14 7 -41 11
-60 3 -19 9 -48 11 -65 3 -16 7 -113 9 -215 3 -190 -9 -301 -50 -455 -120
-452 -426 -839 -840 -1066 -50 -27 -237 -109 -259 -113 -6 -2 -35 -10 -65 -19
-57 -18 -165 -41 -241 -52 -25 -4 -56 -9 -70 -11 -34 -5 -310 -5 -335 0 -11 2
-47 7 -80 10 -138 16 -335 77 -490 151 -393 189 -699 519 -852 920 -49 126
-88 274 -99 372 -3 27 -7 59 -10 73 -6 30 -6 296 0 325 2 11 7 45 10 75 62
537 429 1045 936 1295 80 39 194 85 212 85 8 0 18 4 23 9 15 13 220 59 300 67
39 3 72 8 74 10 11 11 345 -6 426 -20z"/>
<path d="M1944 3293 c-153 -110 -323 -230 -378 -268 -54 -39 -144 -103 -200
-142 -55 -40 -125 -89 -153 -109 -29 -20 -53 -37 -53 -38 0 -2 481 -3 1070 -3
l1070 0 -38 28 c-21 15 -168 120 -328 233 -159 113 -378 269 -488 346 -109 78
-204 144 -211 146 -6 3 -137 -84 -291 -193z"/>
<path d="M1250 2575 c0 -81 15 -110 60 -120 l30 -7 0 -324 0 -324 119 0 c86 0
120 3 123 13 2 6 4 153 3 325 -1 289 1 312 17 312 9 0 29 10 44 23 22 19 27
32 29 82 4 96 19 90 -217 90 l-208 0 0 -70z"/>
<path d="M1789 2640 c-1 -3 -2 -34 -3 -70 -2 -59 1 -68 26 -94 18 -17 36 -26
47 -23 17 4 18 -11 19 -307 0 -171 1 -319 1 -328 1 -16 14 -18 121 -18 l120 0
2 327 3 326 23 2 c38 3 56 30 62 93 10 104 25 97 -212 97 -115 0 -208 -2 -209
-5z"/>
<path d="M2289 2645 c-7 0 -3 -135 4 -151 9 -21 46 -44 70 -44 9 0 12 -74 11
-312 0 -172 2 -319 4 -325 3 -10 37 -13 123 -13 l119 0 0 324 0 324 30 7 c45
10 60 39 60 120 l0 70 -210 0 c-115 0 -211 0 -211 0z"/>
<path d="M2785 2640 c-5 -9 -4 -94 1 -128 4 -28 12 -36 47 -51 l42 -18 -1
-322 -1 -321 122 0 122 0 0 328 c0 316 0 327 19 325 23 -3 46 14 62 44 13 24
17 142 5 144 -26 4 -415 3 -418 -1z"/>
<path d="M1350 1742 c-5 -2 -10 -25 -10 -50 l0 -47 -60 -1 c-88 -1 -104 -20
-107 -122 -2 -75 -1 -78 29 -104 l31 -28 993 0 c728 0 1000 3 1018 12 32 14
39 35 41 120 1 55 -3 72 -20 95 -20 24 -29 27 -84 27 -65 1 -63 -2 -63 64 0
22 -5 32 -17 33 -52 3 -1743 3 -1751 1z"/>
</g>
</svg>
