<svg 
 xmlns="http://www.w3.org/2000/svg"
 xmlns:xlink="http://www.w3.org/1999/xlink"
 width="26px" height="24px">
<path fill-rule="evenodd"  fill="rgb(255, 255, 255)"
 d="M23.050,0.746 L2.950,0.746 C1.434,0.746 0.200,1.980 0.200,3.495 L0.200,16.687 C0.200,18.202 1.434,19.436 2.950,19.436 L9.426,19.436 C9.505,19.436 9.580,19.474 9.627,19.537 L11.989,22.738 C12.226,23.059 12.591,23.245 12.989,23.246 L12.995,23.246 C13.392,23.246 13.756,23.064 13.995,22.747 L16.411,19.535 C16.458,19.473 16.532,19.436 16.611,19.436 L23.050,19.436 C24.566,19.436 25.800,18.202 25.800,16.687 L25.800,3.495 C25.800,1.980 24.566,0.746 23.050,0.746 L23.050,0.746 ZM24.300,16.687 C24.300,16.806 24.283,16.920 24.252,17.028 L16.547,10.277 L24.300,3.847 L24.300,16.687 ZM23.050,2.245 C23.279,2.245 23.493,2.307 23.677,2.415 L13.800,10.607 C13.338,10.992 12.666,10.992 12.204,10.607 L2.325,2.413 C2.509,2.307 2.722,2.245 2.950,2.245 L23.050,2.245 ZM1.747,17.028 C1.717,16.920 1.700,16.806 1.700,16.687 L1.700,3.843 L9.455,10.276 L1.747,17.028 ZM15.212,18.634 L12.997,21.580 L10.834,18.647 C10.505,18.202 9.979,17.937 9.426,17.937 L2.986,17.937 L10.623,11.245 L11.246,11.760 C11.754,12.182 12.378,12.393 13.002,12.393 C13.626,12.393 14.249,12.182 14.758,11.760 L15.378,11.247 L23.014,17.937 L16.611,17.937 C16.063,17.937 15.540,18.198 15.212,18.634 L15.212,18.634 Z"/>
</svg>