<svg 
 xmlns="http://www.w3.org/2000/svg"
 xmlns:xlink="http://www.w3.org/1999/xlink"
 width="10px" height="10px">
<path fill-rule="evenodd"  fill="rgb(222, 104, 39)"
 d="M9.978,7.743 C9.950,7.657 9.770,7.530 9.439,7.365 C9.349,7.312 9.221,7.244 9.055,7.154 C8.890,7.063 8.739,6.981 8.604,6.905 C8.469,6.829 8.342,6.758 8.224,6.684 C8.205,6.672 8.146,6.629 8.047,6.562 C7.947,6.492 7.863,6.441 7.795,6.407 C7.726,6.374 7.658,6.357 7.592,6.357 C7.497,6.357 7.379,6.426 7.237,6.562 C7.095,6.694 6.965,6.842 6.847,7.002 C6.728,7.159 6.603,7.307 6.470,7.440 C6.338,7.576 6.229,7.644 6.143,7.644 C6.101,7.644 6.047,7.631 5.984,7.607 C5.920,7.582 5.871,7.563 5.838,7.547 C5.805,7.529 5.748,7.497 5.668,7.450 C5.587,7.397 5.542,7.370 5.532,7.365 C4.884,7.007 4.328,6.595 3.863,6.131 C3.400,5.668 2.988,5.110 2.628,4.461 C2.623,4.453 2.596,4.406 2.546,4.325 C2.496,4.247 2.463,4.187 2.446,4.157 C2.430,4.124 2.410,4.075 2.386,4.011 C2.362,3.947 2.351,3.894 2.351,3.852 C2.351,3.767 2.418,3.659 2.553,3.525 C2.688,3.391 2.835,3.265 2.994,3.148 C3.152,3.029 3.299,2.899 3.434,2.757 C3.569,2.614 3.636,2.496 3.636,2.401 C3.636,2.335 3.620,2.268 3.586,2.199 C3.553,2.131 3.503,2.045 3.434,1.948 C3.365,1.849 3.324,1.790 3.309,1.769 C3.239,1.652 3.165,1.524 3.089,1.390 C3.013,1.255 2.931,1.106 2.841,0.939 C2.751,0.773 2.680,0.647 2.628,0.556 C2.462,0.223 2.337,0.045 2.251,0.016 C2.218,0.001 2.168,-0.005 2.102,-0.005 C1.974,-0.005 1.807,0.019 1.601,0.064 C1.395,0.112 1.233,0.163 1.115,0.214 C0.878,0.313 0.627,0.602 0.362,1.082 C0.121,1.524 -0.000,1.964 -0.000,2.401 C-0.000,2.530 0.008,2.655 0.025,2.774 C0.041,2.898 0.071,3.033 0.113,3.182 C0.156,3.335 0.190,3.447 0.216,3.521 C0.242,3.591 0.291,3.725 0.362,3.914 C0.433,4.104 0.476,4.219 0.490,4.262 C0.656,4.726 0.852,5.139 1.079,5.508 C1.453,6.112 1.964,6.738 2.610,7.384 C3.256,8.031 3.882,8.541 4.488,8.914 C4.853,9.143 5.267,9.337 5.731,9.505 C5.774,9.518 5.890,9.560 6.079,9.633 C6.269,9.702 6.400,9.752 6.473,9.778 C6.547,9.805 6.660,9.838 6.811,9.880 C6.962,9.922 7.098,9.951 7.219,9.968 C7.340,9.987 7.464,9.994 7.592,9.994 C8.028,9.994 8.468,9.875 8.913,9.634 C9.391,9.367 9.680,9.118 9.780,8.879 C9.832,8.761 9.881,8.600 9.929,8.393 C9.976,8.187 10.000,8.020 10.000,7.893 C10.000,7.823 9.993,7.775 9.978,7.743 Z"/>
</svg>